<svg xmlns="http://www.w3.org/2000/svg" width="385.44" height="200.64001" class="svgbob">
  <style>.filled{
	fill: none !important;
}

text{
    font-family: monospace !important;
    font-weight: bold !important;
    fill: red !important;
    visibility: visible;
}
marker > *{
    stroke: darkorange !important;
    visibility: visible;
}
body.check-text text,
body.check-text marker > *{
    visibility: hidden;
}.svgbob line, .svgbob path, .svgbob circle, .svgbob rect, .svgbob polygon {
  stroke: black;
  stroke-width: 2;
  stroke-opacity: 1;
  fill-opacity: 1;
  stroke-linecap: round;
  stroke-linejoin: miter;
}

.svgbob text {
  white-space: pre;
  fill: black;
  font-family: Iosevka Fixed, monospace;
  font-size: 14px;
}

.svgbob rect.backdrop {
  stroke: none;
  fill: white;
}

.svgbob .broken {
  stroke-dasharray: 8;
}

.svgbob .filled {
  fill: black;
}

.svgbob .bg_filled {
  fill: white;
  stroke-width: 1;
}

.svgbob .nofill {
  fill: white;
}

.svgbob .end_marked_arrow {
  marker-end: url(#arrow);
}

.svgbob .start_marked_arrow {
  marker-start: url(#arrow);
}

.svgbob .end_marked_diamond {
  marker-end: url(#diamond);
}

.svgbob .start_marked_diamond {
  marker-start: url(#diamond);
}

.svgbob .end_marked_circle {
  marker-end: url(#circle);
}

.svgbob .start_marked_circle {
  marker-start: url(#circle);
}

.svgbob .end_marked_open_circle {
  marker-end: url(#open_circle);
}

.svgbob .start_marked_open_circle {
  marker-start: url(#open_circle);
}

.svgbob .end_marked_big_open_circle {
  marker-end: url(#big_open_circle);
}

.svgbob .start_marked_big_open_circle {
  marker-start: url(#big_open_circle);
}

</style>
  <defs>
    <marker id="arrow" viewBox="-2 -2 8 8" refX="4" refY="2" markerWidth="7" markerHeight="7" orient="auto-start-reverse">
      <polygon points="0,0 0,4 4,2 0,0"></polygon>
    </marker>
    <marker id="diamond" viewBox="-2 -2 8 8" refX="4" refY="2" markerWidth="7" markerHeight="7" orient="auto-start-reverse">
      <polygon points="0,2 2,0 4,2 2,4 0,2"></polygon>
    </marker>
    <marker id="circle" viewBox="0 0 8 8" refX="4" refY="4" markerWidth="7" markerHeight="7" orient="auto-start-reverse">
      <circle cx="4" cy="4" r="2" class="filled"></circle>
    </marker>
    <marker id="open_circle" viewBox="0 0 8 8" refX="4" refY="4" markerWidth="7" markerHeight="7" orient="auto-start-reverse">
      <circle cx="4" cy="4" r="2" class="bg_filled"></circle>
    </marker>
    <marker id="big_open_circle" viewBox="0 0 8 8" refX="4" refY="4" markerWidth="7" markerHeight="7" orient="auto-start-reverse">
      <circle cx="4" cy="4" r="3" class="bg_filled"></circle>
    </marker>
  </defs>
  <rect class="backdrop" x="0" y="0" width="385.44" height="200.64001"></rect>
  <text x="170.28001" y="18.480001" >bbbbbbbb</text>
  <text x="80.520004" y="29.04" >AAA</text>
  <text x="170.28001" y="29.04" >b</text>
  <line x1="176.88" y1="21.12" x2="176.88" y2="52.800003" class="broken"></line>
  <line x1="182.16" y1="21.12" x2="182.16" y2="179.52" class="broken"></line>
  <line x1="187.44" y1="21.12" x2="187.44" y2="179.52" class="broken"></line>
  <line x1="192.72" y1="21.12" x2="192.72" y2="179.52" class="broken"></line>
  <line x1="198.00002" y1="21.12" x2="198.00002" y2="179.52" class="broken"></line>
  <line x1="203.28001" y1="21.12" x2="203.28001" y2="179.52" class="broken"></line>
  <text x="207.24" y="29.04" >b</text>
  <text x="75.240005" y="39.600002" >A</text>
  <line x1="81.840004" y1="31.68" x2="81.840004" y2="84.48" class="broken"></line>
  <line x1="87.12" y1="31.68" x2="87.12" y2="73.920006" class="broken"></line>
  <line x1="92.4" y1="31.68" x2="92.4" y2="84.48" class="broken"></line>
  <text x="96.36" y="39.600002" >A</text>
  <text x="170.28001" y="39.600002" >b</text>
  <text x="207.24" y="39.600002" >b</text>
  <text x="69.96" y="50.160004" >A</text>
  <line x1="76.560005" y1="42.24" x2="76.560005" y2="95.04" class="broken"></line>
  <line x1="97.68" y1="42.24" x2="97.68" y2="95.04" class="broken"></line>
  <text x="101.64001" y="50.160004" >A</text>
  <text x="170.28001" y="50.160004" >b</text>
  <text x="207.24" y="50.160004" >b</text>
  <text x="64.68" y="60.72" >A</text>
  <line x1="71.28001" y1="52.800003" x2="71.28001" y2="105.600006" class="broken"></line>
  <line x1="102.96001" y1="52.800003" x2="102.96001" y2="105.600006" class="broken"></line>
  <text x="106.920006" y="60.72" >A</text>
  <text x="175.56001" y="60.72" >b</text>
  <text x="207.24" y="60.72" >b</text>
  <text x="59.4" y="71.28001" >A</text>
  <line x1="66" y1="63.36" x2="66" y2="116.16" class="broken"></line>
  <line x1="108.240005" y1="63.36" x2="108.240005" y2="116.16" class="broken"></line>
  <text x="112.200005" y="71.28001" >A</text>
  <text x="175.56001" y="71.28001" >b</text>
  <text x="207.24" y="71.28001" >bbbbbbbbb</text>
  <text x="297" y="71.28001" >cccccccccccccccc</text>
  <text x="54.120003" y="81.840004" >A</text>
  <line x1="60.72" y1="73.920006" x2="60.72" y2="137.28" class="broken"></line>
  <text x="85.8" y="81.840004" >A</text>
  <line x1="113.520004" y1="73.920006" x2="113.520004" y2="137.28" class="broken"></line>
  <text x="117.48" y="81.840004" >A</text>
  <text x="175.56001" y="81.840004" >b</text>
  <line x1="208.56001" y1="73.920006" x2="208.56001" y2="95.04" class="broken"></line>
  <line x1="213.84001" y1="73.920006" x2="213.84001" y2="95.04" class="broken"></line>
  <line x1="219.12001" y1="73.920006" x2="219.12001" y2="95.04" class="broken"></line>
  <line x1="224.40001" y1="73.920006" x2="224.40001" y2="95.04" class="broken"></line>
  <line x1="229.68001" y1="73.920006" x2="229.68001" y2="95.04" class="broken"></line>
  <line x1="234.96" y1="73.920006" x2="234.96" y2="105.600006" class="broken"></line>
  <line x1="240.24" y1="73.920006" x2="240.24" y2="116.16" class="broken"></line>
  <line x1="245.52" y1="73.920006" x2="245.52" y2="179.52" class="broken"></line>
  <line x1="250.8" y1="73.920006" x2="250.8" y2="179.52" class="broken"></line>
  <text x="254.76001" y="81.840004" >bb</text>
  <text x="286.44" y="81.840004" >cc</text>
  <line x1="298.32" y1="73.920006" x2="298.32" y2="179.52" class="broken"></line>
  <line x1="303.6" y1="73.920006" x2="303.6" y2="179.52" class="broken"></line>
  <line x1="308.88" y1="73.920006" x2="308.88" y2="116.16" class="broken"></line>
  <line x1="314.16" y1="73.920006" x2="314.16" y2="105.600006" class="broken"></line>
  <line x1="319.44" y1="73.920006" x2="319.44" y2="95.04" class="broken"></line>
  <line x1="324.72" y1="73.920006" x2="324.72" y2="95.04" class="broken"></line>
  <line x1="330" y1="73.920006" x2="330" y2="95.04" class="broken"></line>
  <line x1="335.28" y1="73.920006" x2="335.28" y2="95.04" class="broken"></line>
  <line x1="340.56003" y1="73.920006" x2="340.56003" y2="95.04" class="broken"></line>
  <line x1="345.84003" y1="73.920006" x2="345.84003" y2="95.04" class="broken"></line>
  <line x1="351.12003" y1="73.920006" x2="351.12003" y2="105.600006" class="broken"></line>
  <line x1="356.40002" y1="73.920006" x2="356.40002" y2="105.600006" class="broken"></line>
  <line x1="361.68002" y1="73.920006" x2="361.68002" y2="105.600006" class="broken"></line>
  <line x1="366.96002" y1="73.920006" x2="366.96002" y2="105.600006" class="broken"></line>
  <line x1="372.24002" y1="73.920006" x2="372.24002" y2="105.600006" class="broken"></line>
  <text x="376.2" y="81.840004" >c</text>
  <text x="48.84" y="92.4" >A</text>
  <line x1="55.440002" y1="84.48" x2="55.440002" y2="137.28" class="broken"></line>
  <text x="80.520004" y="92.4" >A</text>
  <text x="91.08" y="92.4" >A</text>
  <line x1="118.8" y1="84.48" x2="118.8" y2="137.28" class="broken"></line>
  <text x="122.76" y="92.4" >A</text>
  <text x="175.56001" y="92.4" >b</text>
  <line x1="256.08002" y1="84.48" x2="256.08002" y2="179.52" class="broken"></line>
  <line x1="261.36002" y1="84.48" x2="261.36002" y2="168.96" class="broken"></line>
  <text x="265.32" y="92.4" >b</text>
  <text x="281.16" y="92.4" >c</text>
  <line x1="287.76" y1="84.48" x2="287.76" y2="168.96" class="broken"></line>
  <line x1="293.04" y1="84.48" x2="293.04" y2="168.96" class="broken"></line>
  <text x="376.2" y="92.4" >c</text>
  <text x="43.56" y="102.96001" >A</text>
  <line x1="50.160004" y1="95.04" x2="50.160004" y2="147.84001" class="broken"></line>
  <text x="75.240005" y="102.96001" >A</text>
  <text x="96.36" y="102.96001" >A</text>
  <line x1="124.08" y1="95.04" x2="124.08" y2="147.84001" class="broken"></line>
  <text x="128.04001" y="102.96001" >A</text>
  <text x="175.56001" y="102.96001" >b</text>
  <text x="207.24" y="102.96001" >bbbbb</text>
  <line x1="266.64" y1="95.04" x2="266.64" y2="158.40001" class="broken"></line>
  <text x="270.6" y="102.96001" >bc</text>
  <line x1="282.48" y1="95.04" x2="282.48" y2="158.40001" class="broken"></line>
  <text x="318.12003" y="102.96001" >cccccc</text>
  <text x="376.2" y="102.96001" >c</text>
  <text x="38.280003" y="113.520004" >A</text>
  <line x1="44.88" y1="105.600006" x2="44.88" y2="158.40001" class="broken"></line>
  <text x="69.96" y="113.520004" >A</text>
  <text x="101.64001" y="113.520004" >A</text>
  <line x1="129.36" y1="105.600006" x2="129.36" y2="158.40001" class="broken"></line>
  <text x="133.32" y="113.520004" >A</text>
  <text x="175.56001" y="113.520004" >b</text>
  <text x="207.24" y="113.520004" >b</text>
  <text x="233.64001" y="113.520004" >b</text>
  <text x="270.6" y="113.520004" >bc</text>
  <text x="312.84003" y="113.520004" >c</text>
  <text x="344.52002" y="113.520004" >ccccccc</text>
  <text x="33" y="124.08" >A</text>
  <line x1="39.600002" y1="116.16" x2="39.600002" y2="168.96" class="broken"></line>
  <text x="64.68" y="124.08" >AAAAAAAAA</text>
  <line x1="134.64" y1="116.16" x2="134.64" y2="168.96" class="broken"></line>
  <text x="138.6" y="124.08" >A</text>
  <text x="175.56001" y="124.08" >b</text>
  <text x="207.24" y="124.08" >b</text>
  <text x="238.92001" y="124.08" >b</text>
  <text x="270.6" y="124.08" >bc</text>
  <text x="307.56" y="124.08" >c</text>
  <text x="27.720001" y="134.64" >A</text>
  <line x1="34.32" y1="126.72" x2="34.32" y2="179.52" class="broken"></line>
  <text x="64.68" y="134.64" >:::::::::</text>
  <line x1="139.92" y1="126.72" x2="139.92" y2="179.52" class="broken"></line>
  <text x="143.88" y="134.64" >A</text>
  <text x="175.56001" y="134.64" >b</text>
  <text x="207.24" y="134.64" >b</text>
  <text x="238.92001" y="134.64" >b</text>
  <text x="270.6" y="134.64" >bc</text>
  <text x="307.56" y="134.64" >c</text>
  <text x="22.44" y="145.20001" >A</text>
  <line x1="29.04" y1="137.28" x2="29.04" y2="179.52" class="broken"></line>
  <text x="54.120003" y="145.20001" >AAAAAAAAAAAAA</text>
  <line x1="145.20001" y1="137.28" x2="145.20001" y2="179.52" class="broken"></line>
  <text x="149.16" y="145.20001" >A</text>
  <text x="175.56001" y="145.20001" >b</text>
  <text x="207.24" y="145.20001" >b</text>
  <text x="238.92001" y="145.20001" >b</text>
  <text x="270.6" y="145.20001" >bc</text>
  <line x1="308.88" y1="137.28" x2="308.88" y2="179.52" class="broken"></line>
  <text x="312.84003" y="145.20001" >c</text>
  <text x="344.52002" y="145.20001" >ccccccc</text>
  <text x="17.16" y="155.76001" >A</text>
  <line x1="23.76" y1="147.84001" x2="23.76" y2="179.52" class="broken"></line>
  <text x="48.84" y="155.76001" >A</text>
  <text x="122.76" y="155.76001" >A</text>
  <line x1="150.48001" y1="147.84001" x2="150.48001" y2="179.52" class="broken"></line>
  <text x="154.44" y="155.76001" >A</text>
  <text x="175.56001" y="155.76001" >b</text>
  <text x="207.24" y="155.76001" >bbbbbb</text>
  <line x1="240.24" y1="147.84001" x2="240.24" y2="179.52" class="broken"></line>
  <text x="270.6" y="155.76001" >bc</text>
  <line x1="314.16" y1="147.84001" x2="314.16" y2="179.52" class="broken"></line>
  <text x="318.12003" y="155.76001" >cccccc</text>
  <line x1="351.12003" y1="147.84001" x2="351.12003" y2="179.52" class="broken"></line>
  <line x1="356.40002" y1="147.84001" x2="356.40002" y2="179.52" class="broken"></line>
  <line x1="361.68002" y1="147.84001" x2="361.68002" y2="179.52" class="broken"></line>
  <line x1="366.96002" y1="147.84001" x2="366.96002" y2="179.52" class="broken"></line>
  <line x1="372.24002" y1="147.84001" x2="372.24002" y2="179.52" class="broken"></line>
  <text x="376.2" y="155.76001" >c</text>
  <text x="11.88" y="166.32" >A</text>
  <line x1="18.480001" y1="158.40001" x2="18.480001" y2="179.52" class="broken"></line>
  <text x="43.56" y="166.32" >A</text>
  <text x="128.04001" y="166.32" >A</text>
  <line x1="155.76001" y1="158.40001" x2="155.76001" y2="179.52" class="broken"></line>
  <text x="159.72" y="166.32" >A</text>
  <text x="175.56001" y="166.32" >b</text>
  <line x1="208.56001" y1="158.40001" x2="208.56001" y2="179.52" class="broken"></line>
  <line x1="213.84001" y1="158.40001" x2="213.84001" y2="179.52" class="broken"></line>
  <line x1="219.12001" y1="158.40001" x2="219.12001" y2="179.52" class="broken"></line>
  <line x1="224.40001" y1="158.40001" x2="224.40001" y2="179.52" class="broken"></line>
  <line x1="229.68001" y1="158.40001" x2="229.68001" y2="179.52" class="broken"></line>
  <line x1="234.96" y1="158.40001" x2="234.96" y2="179.52" class="broken"></line>
  <text x="265.32" y="166.32" >b</text>
  <text x="281.16" y="166.32" >c</text>
  <line x1="319.44" y1="158.40001" x2="319.44" y2="179.52" class="broken"></line>
  <line x1="324.72" y1="158.40001" x2="324.72" y2="179.52" class="broken"></line>
  <line x1="330" y1="158.40001" x2="330" y2="179.52" class="broken"></line>
  <line x1="335.28" y1="158.40001" x2="335.28" y2="179.52" class="broken"></line>
  <line x1="340.56003" y1="158.40001" x2="340.56003" y2="179.52" class="broken"></line>
  <line x1="345.84003" y1="158.40001" x2="345.84003" y2="179.52" class="broken"></line>
  <text x="376.2" y="166.32" >c</text>
  <text x="6.6000004" y="176.88" >A:</text>
  <text x="38.280003" y="176.88" >A</text>
  <text x="133.32" y="176.88" >A</text>
  <text x="159.72" y="176.88" >:A</text>
  <text x="175.56001" y="176.88" >b</text>
  <text x="260.04" y="176.88" >b</text>
  <text x="286.44" y="176.88" >cc</text>
  <text x="376.2" y="176.88" >c</text>
  <text x="1.32" y="187.44" >AAAAAAA</text>
  <text x="138.6" y="187.44" >AAAAAAAbbbbbbbbbbbbbbbb</text>
  <text x="297" y="187.44" >cccccccccccccccc</text>
</svg>
