<svg xmlns="http://www.w3.org/2000/svg" width="205.92001" height="116.16" class="svgbob">
  <style>.filled{
	fill: none !important;
}

text{
    font-family: monospace !important;
    font-weight: bold !important;
    fill: red !important;
    visibility: visible;
}
marker > *{
    stroke: darkorange !important;
    visibility: visible;
}
body.check-text text,
body.check-text marker > *{
    visibility: hidden;
}.svgbob line, .svgbob path, .svgbob circle, .svgbob rect, .svgbob polygon {
  stroke: black;
  stroke-width: 2;
  stroke-opacity: 1;
  fill-opacity: 1;
  stroke-linecap: round;
  stroke-linejoin: miter;
}

.svgbob text {
  white-space: pre;
  fill: black;
  font-family: Iosevka Fixed, monospace;
  font-size: 14px;
}

.svgbob rect.backdrop {
  stroke: none;
  fill: white;
}

.svgbob .broken {
  stroke-dasharray: 8;
}

.svgbob .filled {
  fill: black;
}

.svgbob .bg_filled {
  fill: white;
  stroke-width: 1;
}

.svgbob .nofill {
  fill: white;
}

.svgbob .end_marked_arrow {
  marker-end: url(#arrow);
}

.svgbob .start_marked_arrow {
  marker-start: url(#arrow);
}

.svgbob .end_marked_diamond {
  marker-end: url(#diamond);
}

.svgbob .start_marked_diamond {
  marker-start: url(#diamond);
}

.svgbob .end_marked_circle {
  marker-end: url(#circle);
}

.svgbob .start_marked_circle {
  marker-start: url(#circle);
}

.svgbob .end_marked_open_circle {
  marker-end: url(#open_circle);
}

.svgbob .start_marked_open_circle {
  marker-start: url(#open_circle);
}

.svgbob .end_marked_big_open_circle {
  marker-end: url(#big_open_circle);
}

.svgbob .start_marked_big_open_circle {
  marker-start: url(#big_open_circle);
}

</style>
  <defs>
    <marker id="arrow" viewBox="-2 -2 8 8" refX="4" refY="2" markerWidth="7" markerHeight="7" orient="auto-start-reverse">
      <polygon points="0,0 0,4 4,2 0,0"></polygon>
    </marker>
    <marker id="diamond" viewBox="-2 -2 8 8" refX="4" refY="2" markerWidth="7" markerHeight="7" orient="auto-start-reverse">
      <polygon points="0,2 2,0 4,2 2,4 0,2"></polygon>
    </marker>
    <marker id="circle" viewBox="0 0 8 8" refX="4" refY="4" markerWidth="7" markerHeight="7" orient="auto-start-reverse">
      <circle cx="4" cy="4" r="2" class="filled"></circle>
    </marker>
    <marker id="open_circle" viewBox="0 0 8 8" refX="4" refY="4" markerWidth="7" markerHeight="7" orient="auto-start-reverse">
      <circle cx="4" cy="4" r="2" class="bg_filled"></circle>
    </marker>
    <marker id="big_open_circle" viewBox="0 0 8 8" refX="4" refY="4" markerWidth="7" markerHeight="7" orient="auto-start-reverse">
      <circle cx="4" cy="4" r="3" class="bg_filled"></circle>
    </marker>
  </defs>
  <rect class="backdrop" x="0" y="0" width="205.92001" height="116.16"></rect>
  <text x="59.4" y="7.92" >,ggg,</text>
  <text x="54.120003" y="18.480001" >dP</text>
  <text x="75.240005" y="18.480001" >8I</text>
  <text x="48.84" y="29.04" >dP</text>
  <text x="75.240005" y="29.04" >88</text>
  <text x="43.56" y="39.600002" >dP</text>
  <text x="75.240005" y="39.600002" >88</text>
  <text x="38.280003" y="50.160004" >,8&#39;</text>
  <text x="75.240005" y="50.160004" >88</text>
  <text x="38.280003" y="60.72" >d88888888</text>
  <line x1="5.28" y1="73.920006" x2="15.84" y2="73.920006" class="solid"></line>
  <text x="33" y="71.28001" >,8</text>
  <text x="1.32" y="81.840004" >dP&quot;</text>
  <text x="27.720001" y="81.840004" >,8P</text>
  <text x="1.32" y="92.4" >Yb,</text>
  <line x1="15.84" y1="95.04" x2="21.12" y2="95.04" class="solid"></line>
  <text x="22.44" y="92.4" >,dP</text>
  <text x="101.64001" y="18.480001" >,dPYb,</text>
  <text x="101.64001" y="29.04" >IP&#39;`Yb</text>
  <text x="101.64001" y="39.600002" >I8</text>
  <text x="122.76" y="39.600002" >8I</text>
  <text x="101.64001" y="50.160004" >I8</text>
  <text x="122.76" y="50.160004" >8&#39;</text>
  <text x="101.64001" y="60.72" >I8</text>
  <text x="117.48" y="60.72" >dP</text>
  <text x="165" y="60.72" >,gggg,</text>
  <text x="186.12001" y="71.28001" >&quot;Yb</text>
  <text x="75.240005" y="81.840004" >Y8</text>
  <text x="101.64001" y="81.840004" >I8P</text>
  <text x="75.240005" y="92.4" >`8b,,d8b,</text>
  <text x="80.520004" y="102.96001" >`Y88P&#39;</text>
  <text x="138.6" y="81.840004" >8I</text>
  <text x="154.44" y="81.840004" >i8&#39;</text>
  <text x="133.32" y="92.4" >,8I,d8,</text>
  <line x1="168.96" y1="95.04" x2="174.24" y2="95.04" class="solid"></line>
  <line x1="195.36" y1="95.04" x2="200.64001" y2="95.04" class="solid"></line>
  <text x="143.88" y="102.96001" >&#39;P</text>
  <text x="165" y="102.96001" >Y8888PP</text>
  <text x="64.68" y="18.480001" ></text>
  <text x="43.56" y="71.28001" >     88   I8dP   88ggdP</text>
  <text x="6.6000004" y="102.96001" >Y8P</text>
  <text x="112.200005" y="102.96001" >Y88P</text>
  <text x="154.44" y="102.96001" ></text>
</svg>
