<svg xmlns="http://www.w3.org/2000/svg" width="116.16" height="84.48" class="svgbob">
  <style>.filled{
	fill: none !important;
}

text{
    font-family: monospace !important;
    font-weight: bold !important;
    fill: red !important;
    visibility: visible;
}
marker > *{
    stroke: darkorange !important;
    visibility: visible;
}
body.check-text text,
body.check-text marker > *{
    visibility: hidden;
}.svgbob line, .svgbob path, .svgbob circle, .svgbob rect, .svgbob polygon {
  stroke: black;
  stroke-width: 2;
  stroke-opacity: 1;
  fill-opacity: 1;
  stroke-linecap: round;
  stroke-linejoin: miter;
}

.svgbob text {
  white-space: pre;
  fill: black;
  font-family: Iosevka Fixed, monospace;
  font-size: 14px;
}

.svgbob rect.backdrop {
  stroke: none;
  fill: white;
}

.svgbob .broken {
  stroke-dasharray: 8;
}

.svgbob .filled {
  fill: black;
}

.svgbob .bg_filled {
  fill: white;
  stroke-width: 1;
}

.svgbob .nofill {
  fill: white;
}

.svgbob .end_marked_arrow {
  marker-end: url(#arrow);
}

.svgbob .start_marked_arrow {
  marker-start: url(#arrow);
}

.svgbob .end_marked_diamond {
  marker-end: url(#diamond);
}

.svgbob .start_marked_diamond {
  marker-start: url(#diamond);
}

.svgbob .end_marked_circle {
  marker-end: url(#circle);
}

.svgbob .start_marked_circle {
  marker-start: url(#circle);
}

.svgbob .end_marked_open_circle {
  marker-end: url(#open_circle);
}

.svgbob .start_marked_open_circle {
  marker-start: url(#open_circle);
}

.svgbob .end_marked_big_open_circle {
  marker-end: url(#big_open_circle);
}

.svgbob .start_marked_big_open_circle {
  marker-start: url(#big_open_circle);
}

</style>
  <defs>
    <marker id="arrow" viewBox="-2 -2 8 8" refX="4" refY="2" markerWidth="7" markerHeight="7" orient="auto-start-reverse">
      <polygon points="0,0 0,4 4,2 0,0"></polygon>
    </marker>
    <marker id="diamond" viewBox="-2 -2 8 8" refX="4" refY="2" markerWidth="7" markerHeight="7" orient="auto-start-reverse">
      <polygon points="0,2 2,0 4,2 2,4 0,2"></polygon>
    </marker>
    <marker id="circle" viewBox="0 0 8 8" refX="4" refY="4" markerWidth="7" markerHeight="7" orient="auto-start-reverse">
      <circle cx="4" cy="4" r="2" class="filled"></circle>
    </marker>
    <marker id="open_circle" viewBox="0 0 8 8" refX="4" refY="4" markerWidth="7" markerHeight="7" orient="auto-start-reverse">
      <circle cx="4" cy="4" r="2" class="bg_filled"></circle>
    </marker>
    <marker id="big_open_circle" viewBox="0 0 8 8" refX="4" refY="4" markerWidth="7" markerHeight="7" orient="auto-start-reverse">
      <circle cx="4" cy="4" r="3" class="bg_filled"></circle>
    </marker>
  </defs>
  <rect class="backdrop" x="0" y="0" width="116.16" height="84.48"></rect>
  <text x="17.16" y="7.92" >#</text>
  <text x="11.88" y="18.480001" >#</text>
  <text x="22.44" y="18.480001" >#</text>
  <text x="6.6000004" y="29.04" >#</text>
  <text x="27.720001" y="29.04" >#</text>
  <rect x="0" y="34.32" width="5.28" height="5.2800026" class="solid filled" rx="0"></rect>
  <line x1="2.64" y1="39.600002" x2="2.64" y2="44.88" class="solid"></line>
  <rect x="31.68" y="34.32" width="5.2800026" height="5.2800026" class="solid filled" rx="0"></rect>
  <line x1="34.32" y1="39.600002" x2="34.32" y2="44.88" class="solid"></line>
  <rect x="0" y="44.88" width="5.28" height="5.2800026" class="solid filled" rx="0"></rect>
  <line x1="2.64" y1="50.160004" x2="2.64" y2="55.440002" class="solid"></line>
  <rect x="5.28" y="44.88" width="5.28" height="5.2800026" class="solid filled" rx="0"></rect>
  <rect x="10.56" y="44.88" width="5.2799997" height="5.2800026" class="solid filled" rx="0"></rect>
  <rect x="15.84" y="44.88" width="5.2800007" height="5.2800026" class="solid filled" rx="0"></rect>
  <rect x="21.12" y="44.88" width="5.2800007" height="5.2800026" class="solid filled" rx="0"></rect>
  <rect x="26.400002" y="44.88" width="5.279999" height="5.2800026" class="solid filled" rx="0"></rect>
  <rect x="31.68" y="44.88" width="5.2800026" height="5.2800026" class="solid filled" rx="0"></rect>
  <line x1="34.32" y1="50.160004" x2="34.32" y2="55.440002" class="solid"></line>
  <rect x="0" y="55.440002" width="5.28" height="5.279999" class="solid filled" rx="0"></rect>
  <line x1="2.64" y1="60.72" x2="2.64" y2="66" class="solid"></line>
  <rect x="31.68" y="55.440002" width="5.2800026" height="5.279999" class="solid filled" rx="0"></rect>
  <line x1="34.32" y1="60.72" x2="34.32" y2="66" class="solid"></line>
  <rect x="0" y="66" width="5.28" height="5.2800064" class="solid filled" rx="0"></rect>
  <rect x="31.68" y="66" width="5.2800026" height="5.2800064" class="solid filled" rx="0"></rect>
  <rect x="42.24" y="13.200001" width="5.279999" height="5.2800007" class="solid filled" rx="0"></rect>
  <line x1="44.88" y1="18.480001" x2="44.88" y2="23.76" class="solid"></line>
  <rect x="47.52" y="13.200001" width="5.2800026" height="5.2800007" class="solid filled" rx="0"></rect>
  <rect x="52.800003" y="13.200001" width="5.279999" height="5.2800007" class="solid filled" rx="0"></rect>
  <rect x="58.08" y="13.200001" width="5.279999" height="5.2800007" class="solid filled" rx="0"></rect>
  <rect x="63.36" y="13.200001" width="5.279999" height="5.2800007" class="solid filled" rx="0"></rect>
  <rect x="42.24" y="23.76" width="5.279999" height="5.2800007" class="solid filled" rx="0"></rect>
  <line x1="44.88" y1="29.04" x2="44.88" y2="34.32" class="solid"></line>
  <text x="69.96" y="29.04" >#</text>
  <rect x="42.24" y="34.32" width="5.279999" height="5.2800026" class="solid filled" rx="0"></rect>
  <line x1="44.88" y1="39.600002" x2="44.88" y2="44.88" class="solid"></line>
  <rect x="47.52" y="34.32" width="5.2800026" height="5.2800026" class="solid filled" rx="0"></rect>
  <rect x="52.800003" y="34.32" width="5.279999" height="5.2800026" class="solid filled" rx="0"></rect>
  <rect x="58.08" y="34.32" width="5.279999" height="5.2800026" class="solid filled" rx="0"></rect>
  <rect x="63.36" y="34.32" width="5.279999" height="5.2800026" class="solid filled" rx="0"></rect>
  <rect x="42.24" y="44.88" width="5.279999" height="5.2800026" class="solid filled" rx="0"></rect>
  <line x1="44.88" y1="50.160004" x2="44.88" y2="55.440002" class="solid"></line>
  <rect x="68.64" y="44.88" width="5.2800064" height="5.2800026" class="solid filled" rx="0"></rect>
  <line x1="71.28001" y1="50.160004" x2="71.28001" y2="55.440002" class="solid"></line>
  <rect x="42.24" y="55.440002" width="5.279999" height="5.279999" class="solid filled" rx="0"></rect>
  <line x1="44.88" y1="60.72" x2="44.88" y2="66" class="solid"></line>
  <rect x="68.64" y="55.440002" width="5.2800064" height="5.279999" class="solid filled" rx="0"></rect>
  <rect x="42.24" y="66" width="5.279999" height="5.2800064" class="solid filled" rx="0"></rect>
  <rect x="47.52" y="66" width="5.2800026" height="5.2800064" class="solid filled" rx="0"></rect>
  <rect x="52.800003" y="66" width="5.279999" height="5.2800064" class="solid filled" rx="0"></rect>
  <rect x="58.08" y="66" width="5.279999" height="5.2800064" class="solid filled" rx="0"></rect>
  <rect x="63.36" y="66" width="5.279999" height="5.2800064" class="solid filled" rx="0"></rect>
  <rect x="84.48" y="13.200001" width="5.279999" height="5.2800007" class="solid filled" rx="0"></rect>
  <rect x="89.76" y="13.200001" width="5.279999" height="5.2800007" class="solid filled" rx="0"></rect>
  <rect x="95.04" y="13.200001" width="5.2800064" height="5.2800007" class="solid filled" rx="0"></rect>
  <rect x="100.32001" y="13.200001" width="5.279999" height="5.2800007" class="solid filled" rx="0"></rect>
  <rect x="79.200005" y="23.76" width="5.279999" height="5.2800007" class="solid filled" rx="0"></rect>
  <line x1="81.840004" y1="29.04" x2="81.840004" y2="34.32" class="solid"></line>
  <text x="106.920006" y="29.04" >#</text>
  <rect x="79.200005" y="34.32" width="5.279999" height="5.2800026" class="solid filled" rx="0"></rect>
  <line x1="81.840004" y1="39.600002" x2="81.840004" y2="44.88" class="solid"></line>
  <rect x="79.200005" y="44.88" width="5.279999" height="5.2800026" class="solid filled" rx="0"></rect>
  <line x1="81.840004" y1="50.160004" x2="81.840004" y2="55.440002" class="solid"></line>
  <rect x="79.200005" y="55.440002" width="5.279999" height="5.279999" class="solid filled" rx="0"></rect>
  <text x="106.920006" y="60.72" >#</text>
  <rect x="84.48" y="66" width="5.279999" height="5.2800064" class="solid filled" rx="0"></rect>
  <rect x="89.76" y="66" width="5.279999" height="5.2800064" class="solid filled" rx="0"></rect>
  <rect x="95.04" y="66" width="5.2800064" height="5.2800064" class="solid filled" rx="0"></rect>
  <rect x="100.32001" y="66" width="5.279999" height="5.2800064" class="solid filled" rx="0"></rect>
</svg>
