<svg xmlns="http://www.w3.org/2000/svg" width="95.04" height="42.24" class="svgbob">
  <style>.filled{
	fill: none !important;
}

text{
    font-family: monospace !important;
    font-weight: bold !important;
    fill: red !important;
    visibility: visible;
}
marker > *{
    stroke: darkorange !important;
    visibility: visible;
}
body.check-text text,
body.check-text marker > *{
    visibility: hidden;
}.svgbob line, .svgbob path, .svgbob circle, .svgbob rect, .svgbob polygon {
  stroke: black;
  stroke-width: 2;
  stroke-opacity: 1;
  fill-opacity: 1;
  stroke-linecap: round;
  stroke-linejoin: miter;
}

.svgbob text {
  white-space: pre;
  fill: black;
  font-family: Iosevka Fixed, monospace;
  font-size: 14px;
}

.svgbob rect.backdrop {
  stroke: none;
  fill: white;
}

.svgbob .broken {
  stroke-dasharray: 8;
}

.svgbob .filled {
  fill: black;
}

.svgbob .bg_filled {
  fill: white;
  stroke-width: 1;
}

.svgbob .nofill {
  fill: white;
}

.svgbob .end_marked_arrow {
  marker-end: url(#arrow);
}

.svgbob .start_marked_arrow {
  marker-start: url(#arrow);
}

.svgbob .end_marked_diamond {
  marker-end: url(#diamond);
}

.svgbob .start_marked_diamond {
  marker-start: url(#diamond);
}

.svgbob .end_marked_circle {
  marker-end: url(#circle);
}

.svgbob .start_marked_circle {
  marker-start: url(#circle);
}

.svgbob .end_marked_open_circle {
  marker-end: url(#open_circle);
}

.svgbob .start_marked_open_circle {
  marker-start: url(#open_circle);
}

.svgbob .end_marked_big_open_circle {
  marker-end: url(#big_open_circle);
}

.svgbob .start_marked_big_open_circle {
  marker-start: url(#big_open_circle);
}

</style>
  <defs>
    <marker id="arrow" viewBox="-2 -2 8 8" refX="4" refY="2" markerWidth="7" markerHeight="7" orient="auto-start-reverse">
      <polygon points="0,0 0,4 4,2 0,0"></polygon>
    </marker>
    <marker id="diamond" viewBox="-2 -2 8 8" refX="4" refY="2" markerWidth="7" markerHeight="7" orient="auto-start-reverse">
      <polygon points="0,2 2,0 4,2 2,4 0,2"></polygon>
    </marker>
    <marker id="circle" viewBox="0 0 8 8" refX="4" refY="4" markerWidth="7" markerHeight="7" orient="auto-start-reverse">
      <circle cx="4" cy="4" r="2" class="filled"></circle>
    </marker>
    <marker id="open_circle" viewBox="0 0 8 8" refX="4" refY="4" markerWidth="7" markerHeight="7" orient="auto-start-reverse">
      <circle cx="4" cy="4" r="2" class="bg_filled"></circle>
    </marker>
    <marker id="big_open_circle" viewBox="0 0 8 8" refX="4" refY="4" markerWidth="7" markerHeight="7" orient="auto-start-reverse">
      <circle cx="4" cy="4" r="3" class="bg_filled"></circle>
    </marker>
  </defs>
  <rect class="backdrop" x="0" y="0" width="95.04" height="42.24"></rect>
  <line x1="10.56" y1="14.52" x2="15.84" y2="14.52" class="solid"></line>
  <line x1="10.56" y1="17.16" x2="15.84" y2="17.16" class="solid"></line>
  <line x1="42.24" y1="14.52" x2="47.52" y2="14.52" class="solid"></line>
  <line x1="42.24" y1="17.16" x2="47.52" y2="17.16" class="solid"></line>
  <path d="M 52.800003,21.12 A 10.56,10.56 0,0,1 52.800003,31.68" class="nofill"></path>
  <g>
    <line x1="2.64" y1="10.56" x2="23.76" y2="10.56" class="solid"></line>
    <line x1="2.64" y1="10.56" x2="2.64" y2="31.68" class="solid"></line>
    <line x1="7.92" y1="10.56" x2="7.92" y2="31.68" class="solid"></line>
    <line x1="18.480001" y1="10.56" x2="18.480001" y2="31.68" class="solid"></line>
    <line x1="23.76" y1="10.56" x2="23.76" y2="31.68" class="solid"></line>
  </g>
  <g>
    <line x1="31.68" y1="10.56" x2="52.800003" y2="10.56" class="solid"></line>
    <line x1="34.32" y1="10.56" x2="34.32" y2="31.68" class="solid"></line>
    <line x1="39.600002" y1="10.56" x2="39.600002" y2="31.68" class="solid"></line>
    <line x1="39.600002" y1="31.68" x2="47.52" y2="31.68" class="solid"></line>
    <path d="M 47.52,10.56 A 10.56,10.56 0,0,1 47.52,21.12" class="nofill"></path>
    <path d="M 47.52,21.12 A 10.56,10.56 0,0,1 47.52,31.68" class="nofill"></path>
  </g>
  <g>
    <line x1="68.64" y1="10.56" x2="89.76" y2="10.56" class="solid"></line>
    <path d="M 68.64,10.56 A 10.56,10.56 0,0,0 68.64,21.12" class="nofill"></path>
    <line x1="68.64" y1="21.12" x2="73.920006" y2="31.68" class="solid"></line>
  </g>
  <g>
    <path d="M 73.920006,10.56 A 10.56,10.56 0,0,0 73.920006,21.12" class="nofill"></path>
    <line x1="73.920006" y1="21.12" x2="79.200005" y2="31.68" class="solid"></line>
    <line x1="79.200005" y1="31.68" x2="89.76" y2="31.68" class="solid"></line>
  </g>
</svg>
