<svg xmlns="http://www.w3.org/2000/svg" width="147.84001" height="63.36" class="svgbob">
  <style>.filled{
	fill: none !important;
}

text{
    font-family: monospace !important;
    font-weight: bold !important;
    fill: red !important;
    visibility: visible;
}
marker > *{
    stroke: darkorange !important;
    visibility: visible;
}
body.check-text text,
body.check-text marker > *{
    visibility: hidden;
}.svgbob line, .svgbob path, .svgbob circle, .svgbob rect, .svgbob polygon {
  stroke: black;
  stroke-width: 2;
  stroke-opacity: 1;
  fill-opacity: 1;
  stroke-linecap: round;
  stroke-linejoin: miter;
}

.svgbob text {
  white-space: pre;
  fill: black;
  font-family: Iosevka Fixed, monospace;
  font-size: 14px;
}

.svgbob rect.backdrop {
  stroke: none;
  fill: white;
}

.svgbob .broken {
  stroke-dasharray: 8;
}

.svgbob .filled {
  fill: black;
}

.svgbob .bg_filled {
  fill: white;
  stroke-width: 1;
}

.svgbob .nofill {
  fill: white;
}

.svgbob .end_marked_arrow {
  marker-end: url(#arrow);
}

.svgbob .start_marked_arrow {
  marker-start: url(#arrow);
}

.svgbob .end_marked_diamond {
  marker-end: url(#diamond);
}

.svgbob .start_marked_diamond {
  marker-start: url(#diamond);
}

.svgbob .end_marked_circle {
  marker-end: url(#circle);
}

.svgbob .start_marked_circle {
  marker-start: url(#circle);
}

.svgbob .end_marked_open_circle {
  marker-end: url(#open_circle);
}

.svgbob .start_marked_open_circle {
  marker-start: url(#open_circle);
}

.svgbob .end_marked_big_open_circle {
  marker-end: url(#big_open_circle);
}

.svgbob .start_marked_big_open_circle {
  marker-start: url(#big_open_circle);
}

</style>
  <defs>
    <marker id="arrow" viewBox="-2 -2 8 8" refX="4" refY="2" markerWidth="7" markerHeight="7" orient="auto-start-reverse">
      <polygon points="0,0 0,4 4,2 0,0"></polygon>
    </marker>
    <marker id="diamond" viewBox="-2 -2 8 8" refX="4" refY="2" markerWidth="7" markerHeight="7" orient="auto-start-reverse">
      <polygon points="0,2 2,0 4,2 2,4 0,2"></polygon>
    </marker>
    <marker id="circle" viewBox="0 0 8 8" refX="4" refY="4" markerWidth="7" markerHeight="7" orient="auto-start-reverse">
      <circle cx="4" cy="4" r="2" class="filled"></circle>
    </marker>
    <marker id="open_circle" viewBox="0 0 8 8" refX="4" refY="4" markerWidth="7" markerHeight="7" orient="auto-start-reverse">
      <circle cx="4" cy="4" r="2" class="bg_filled"></circle>
    </marker>
    <marker id="big_open_circle" viewBox="0 0 8 8" refX="4" refY="4" markerWidth="7" markerHeight="7" orient="auto-start-reverse">
      <circle cx="4" cy="4" r="3" class="bg_filled"></circle>
    </marker>
  </defs>
  <rect class="backdrop" x="0" y="0" width="147.84001" height="63.36"></rect>
  <line x1="31.68" y1="0" x2="5.28" y2="52.800003" class="solid"></line>
  <text x="27.720001" y="29.04" >...</text>
  <line x1="36.960003" y1="0" x2="63.36" y2="52.800003" class="solid"></line>
  <text x="1.32" y="50.160004" >.</text>
  <text x="64.68" y="50.160004" >.</text>
  <text x="75.240005" y="7.92" >&#39;</text>
  <line x1="81.840004" y1="0" x2="81.840004" y2="52.800003" class="solid"></line>
  <line x1="87.12" y1="0" x2="87.12" y2="52.800003" class="solid"></line>
  <text x="91.08" y="29.04" >&#39;&#39;</text>
  <line x1="102.96001" y1="21.12" x2="102.96001" y2="52.800003" class="solid"></line>
  <text x="106.920006" y="29.04" >,</text>
  <line x1="108.240005" y1="31.68" x2="108.240005" y2="44.88" class="solid"></line>
  <text x="75.240005" y="50.160004" >.</text>
  <text x="91.08" y="50.160004" >..</text>
  <line x1="118.8" y1="29.04" x2="118.8" y2="42.24" class="solid"></line>
  <line x1="124.08" y1="21.12" x2="124.08" y2="52.800003" class="solid"></line>
  <text x="128.04001" y="29.04" >&#39;&#39;,</text>
  <text x="117.48" y="50.160004" >`</text>
  <text x="128.04001" y="50.160004" >..&#39;</text>
  <g>
    <line x1="34.32" y1="5.28" x2="10.56" y2="52.800003" class="solid"></line>
    <line x1="34.32" y1="5.28" x2="58.08" y2="52.800003" class="solid"></line>
  </g>
</svg>
