<svg xmlns="http://www.w3.org/2000/svg" width="168.96" height="84.48" class="svgbob">
  <style>.filled{
	fill: none !important;
}

text{
    font-family: monospace !important;
    font-weight: bold !important;
    fill: red !important;
    visibility: visible;
}
marker > *{
    stroke: darkorange !important;
    visibility: visible;
}
body.check-text text,
body.check-text marker > *{
    visibility: hidden;
}.svgbob line, .svgbob path, .svgbob circle, .svgbob rect, .svgbob polygon {
  stroke: black;
  stroke-width: 2;
  stroke-opacity: 1;
  fill-opacity: 1;
  stroke-linecap: round;
  stroke-linejoin: miter;
}

.svgbob text {
  white-space: pre;
  fill: black;
  font-family: Iosevka Fixed, monospace;
  font-size: 14px;
}

.svgbob rect.backdrop {
  stroke: none;
  fill: white;
}

.svgbob .broken {
  stroke-dasharray: 8;
}

.svgbob .filled {
  fill: black;
}

.svgbob .bg_filled {
  fill: white;
  stroke-width: 1;
}

.svgbob .nofill {
  fill: white;
}

.svgbob .end_marked_arrow {
  marker-end: url(#arrow);
}

.svgbob .start_marked_arrow {
  marker-start: url(#arrow);
}

.svgbob .end_marked_diamond {
  marker-end: url(#diamond);
}

.svgbob .start_marked_diamond {
  marker-start: url(#diamond);
}

.svgbob .end_marked_circle {
  marker-end: url(#circle);
}

.svgbob .start_marked_circle {
  marker-start: url(#circle);
}

.svgbob .end_marked_open_circle {
  marker-end: url(#open_circle);
}

.svgbob .start_marked_open_circle {
  marker-start: url(#open_circle);
}

.svgbob .end_marked_big_open_circle {
  marker-end: url(#big_open_circle);
}

.svgbob .start_marked_big_open_circle {
  marker-start: url(#big_open_circle);
}

</style>
  <defs>
    <marker id="arrow" viewBox="-2 -2 8 8" refX="4" refY="2" markerWidth="7" markerHeight="7" orient="auto-start-reverse">
      <polygon points="0,0 0,4 4,2 0,0"></polygon>
    </marker>
    <marker id="diamond" viewBox="-2 -2 8 8" refX="4" refY="2" markerWidth="7" markerHeight="7" orient="auto-start-reverse">
      <polygon points="0,2 2,0 4,2 2,4 0,2"></polygon>
    </marker>
    <marker id="circle" viewBox="0 0 8 8" refX="4" refY="4" markerWidth="7" markerHeight="7" orient="auto-start-reverse">
      <circle cx="4" cy="4" r="2" class="filled"></circle>
    </marker>
    <marker id="open_circle" viewBox="0 0 8 8" refX="4" refY="4" markerWidth="7" markerHeight="7" orient="auto-start-reverse">
      <circle cx="4" cy="4" r="2" class="bg_filled"></circle>
    </marker>
    <marker id="big_open_circle" viewBox="0 0 8 8" refX="4" refY="4" markerWidth="7" markerHeight="7" orient="auto-start-reverse">
      <circle cx="4" cy="4" r="3" class="bg_filled"></circle>
    </marker>
  </defs>
  <rect class="backdrop" x="0" y="0" width="168.96" height="84.48"></rect>
  <line x1="23.76" y1="0" x2="23.76" y2="21.12" class="broken"></line>
  <text x="27.720001" y="7.92" >:</text>
  <line x1="34.32" y1="0" x2="34.32" y2="21.12" class="broken"></line>
  <text x="64.68" y="7.92" >:</text>
  <text x="75.240005" y="7.92" >::::</text>
  <line x1="97.68" y1="0" x2="97.68" y2="34.32" class="broken"></line>
  <text x="101.64001" y="7.92" >:</text>
  <text x="117.48" y="7.92" >:</text>
  <text x="128.04001" y="7.92" >::::</text>
  <line x1="150.48001" y1="0" x2="150.48001" y2="21.12" class="broken"></line>
  <text x="154.44" y="7.92" >:</text>
  <line x1="39.600002" y1="15.84" x2="39.600002" y2="34.32" class="solid"></line>
  <line x1="66" y1="10.56" x2="66" y2="21.12" class="solid"></line>
  <line x1="102.96001" y1="10.56" x2="102.96001" y2="21.12" class="solid"></line>
  <text x="106.920006" y="18.480001" >::</text>
  <line x1="118.8" y1="10.56" x2="118.8" y2="21.12" class="solid"></line>
  <line x1="155.76001" y1="10.56" x2="155.76001" y2="15.84" class="solid"></line>
  <text x="159.72" y="18.480001" >:</text>
  <line x1="7.92" y1="26.400002" x2="7.92" y2="34.32" class="solid"></line>
  <text x="64.68" y="29.04" >:</text>
  <text x="101.64001" y="29.04" >:</text>
  <text x="117.48" y="29.04" >:</text>
  <rect x="5.28" y="34.32" width="5.28" height="5.2800026" class="solid filled" rx="0"></rect>
  <line x1="7.92" y1="39.600002" x2="7.92" y2="44.88" class="solid"></line>
  <text x="22.44" y="39.600002" >:</text>
  <line x1="29.04" y1="36.960003" x2="36.960003" y2="36.960003" class="solid"></line>
  <rect x="36.960003" y="34.32" width="5.279999" height="5.2800026" class="solid filled" rx="0"></rect>
  <text x="54.120003" y="39.600002" >:</text>
  <line x1="66" y1="31.68" x2="66" y2="34.32" class="solid"></line>
  <rect x="63.36" y="34.32" width="5.279999" height="5.2800026" class="solid filled" rx="0"></rect>
  <line x1="66" y1="39.600002" x2="66" y2="44.88" class="solid"></line>
  <line x1="68.64" y1="36.960003" x2="76.560005" y2="36.960003" class="solid"></line>
  <text x="80.520004" y="39.600002" >:</text>
  <line x1="87.12" y1="36.960003" x2="95.04" y2="36.960003" class="solid"></line>
  <rect x="95.04" y="34.32" width="5.2800064" height="5.2800026" class="solid filled" rx="0"></rect>
  <line x1="118.8" y1="31.68" x2="118.8" y2="34.32" class="solid"></line>
  <rect x="116.16" y="34.32" width="5.279999" height="5.2800026" class="solid filled" rx="0"></rect>
  <line x1="118.8" y1="39.600002" x2="118.8" y2="44.88" class="solid"></line>
  <rect x="5.28" y="44.88" width="5.28" height="5.2800026" class="solid filled" rx="0"></rect>
  <line x1="7.92" y1="50.160004" x2="7.92" y2="66" class="solid"></line>
  <rect x="47.52" y="44.88" width="5.2800026" height="5.2800026" class="solid filled" rx="0"></rect>
  <line x1="50.160004" y1="50.160004" x2="50.160004" y2="66" class="solid"></line>
  <line x1="55.440002" y1="42.24" x2="55.440002" y2="55.440002" class="solid"></line>
  <line x1="52.800003" y1="47.52" x2="63.36" y2="47.52" class="solid"></line>
  <rect x="63.36" y="44.88" width="5.279999" height="5.2800026" class="solid filled" rx="0"></rect>
  <line x1="66" y1="50.160004" x2="66" y2="66" class="solid"></line>
  <rect x="100.32001" y="44.88" width="5.279999" height="5.2800026" class="solid filled" rx="0"></rect>
  <line x1="102.96001" y1="50.160004" x2="102.96001" y2="66" class="solid"></line>
  <rect x="116.16" y="44.88" width="5.279999" height="5.2800026" class="solid filled" rx="0"></rect>
  <line x1="118.8" y1="50.160004" x2="118.8" y2="66" class="solid"></line>
  <rect x="0" y="55.440002" width="5.28" height="5.279999" class="solid filled" rx="0"></rect>
  <line x1="2.64" y1="60.72" x2="2.64" y2="66" class="solid"></line>
  <line x1="5.28" y1="58.08" x2="10.56" y2="58.08" class="solid"></line>
  <rect x="10.56" y="55.440002" width="5.2799997" height="5.279999" class="solid filled" rx="0"></rect>
  <line x1="13.200001" y1="60.72" x2="13.200001" y2="66" class="solid"></line>
  <rect x="42.24" y="55.440002" width="5.279999" height="5.279999" class="solid filled" rx="0"></rect>
  <line x1="44.88" y1="60.72" x2="44.88" y2="66" class="solid"></line>
  <line x1="47.52" y1="58.08" x2="52.800003" y2="58.08" class="solid"></line>
  <rect x="52.800003" y="55.440002" width="5.279999" height="5.279999" class="solid filled" rx="0"></rect>
  <line x1="55.440002" y1="60.72" x2="55.440002" y2="66" class="solid"></line>
  <rect x="58.08" y="55.440002" width="5.279999" height="5.279999" class="solid filled" rx="0"></rect>
  <line x1="60.72" y1="60.72" x2="60.72" y2="66" class="solid"></line>
  <line x1="63.36" y1="58.08" x2="68.64" y2="58.08" class="solid"></line>
  <rect x="68.64" y="55.440002" width="5.2800064" height="5.279999" class="solid filled" rx="0"></rect>
  <line x1="71.28001" y1="60.72" x2="71.28001" y2="66" class="solid"></line>
  <rect x="95.04" y="55.440002" width="5.2800064" height="5.279999" class="solid filled" rx="0"></rect>
  <line x1="97.68" y1="60.72" x2="97.68" y2="66" class="solid"></line>
  <line x1="100.32001" y1="58.08" x2="105.600006" y2="58.08" class="solid"></line>
  <rect x="105.600006" y="55.440002" width="5.279999" height="5.279999" class="solid filled" rx="0"></rect>
  <rect x="110.880005" y="55.440002" width="5.279999" height="5.279999" class="solid filled" rx="0"></rect>
  <line x1="116.16" y1="58.08" x2="121.44" y2="58.08" class="solid"></line>
  <rect x="121.44" y="55.440002" width="5.279999" height="5.279999" class="solid filled" rx="0"></rect>
  <line x1="124.08" y1="60.72" x2="124.08" y2="66" class="solid"></line>
  <rect x="147.84001" y="55.440002" width="5.279999" height="5.279999" class="solid filled" rx="0"></rect>
  <line x1="150.48001" y1="60.72" x2="150.48001" y2="66" class="solid"></line>
  <rect x="158.40001" y="55.440002" width="5.279999" height="5.279999" class="solid filled" rx="0"></rect>
  <rect x="0" y="66" width="5.28" height="5.2800064" class="solid filled" rx="0"></rect>
  <rect x="5.28" y="66" width="5.28" height="5.2800064" class="solid filled" rx="0"></rect>
  <rect x="10.56" y="66" width="5.2799997" height="5.2800064" class="solid filled" rx="0"></rect>
  <rect x="42.24" y="66" width="5.279999" height="5.2800064" class="solid filled" rx="0"></rect>
  <rect x="47.52" y="66" width="5.2800026" height="5.2800064" class="solid filled" rx="0"></rect>
  <rect x="52.800003" y="66" width="5.279999" height="5.2800064" class="solid filled" rx="0"></rect>
  <rect x="58.08" y="66" width="5.279999" height="5.2800064" class="solid filled" rx="0"></rect>
  <rect x="63.36" y="66" width="5.279999" height="5.2800064" class="solid filled" rx="0"></rect>
  <rect x="68.64" y="66" width="5.2800064" height="5.2800064" class="solid filled" rx="0"></rect>
  <rect x="73.920006" y="66" width="5.279999" height="5.2800064" class="solid filled" rx="0"></rect>
  <rect x="79.200005" y="66" width="5.279999" height="5.2800064" class="solid filled" rx="0"></rect>
  <rect x="84.48" y="66" width="5.279999" height="5.2800064" class="solid filled" rx="0"></rect>
  <rect x="89.76" y="66" width="5.279999" height="5.2800064" class="solid filled" rx="0"></rect>
  <rect x="95.04" y="66" width="5.2800064" height="5.2800064" class="solid filled" rx="0"></rect>
  <rect x="100.32001" y="66" width="5.279999" height="5.2800064" class="solid filled" rx="0"></rect>
  <rect x="116.16" y="66" width="5.279999" height="5.2800064" class="solid filled" rx="0"></rect>
  <rect x="121.44" y="66" width="5.279999" height="5.2800064" class="solid filled" rx="0"></rect>
  <rect x="126.72" y="66" width="5.279999" height="5.2800064" class="solid filled" rx="0"></rect>
  <rect x="132" y="66" width="5.279999" height="5.2800064" class="solid filled" rx="0"></rect>
  <rect x="137.28" y="66" width="5.280014" height="5.2800064" class="solid filled" rx="0"></rect>
  <rect x="142.56001" y="66" width="5.279999" height="5.2800064" class="solid filled" rx="0"></rect>
  <rect x="147.84001" y="66" width="5.279999" height="5.2800064" class="solid filled" rx="0"></rect>
  <rect x="153.12001" y="66" width="5.279999" height="5.2800064" class="solid filled" rx="0"></rect>
  <g>
    <line x1="60.72" y1="0" x2="60.72" y2="55.440002" class="broken"></line>
    <line x1="60.72" y1="36.960003" x2="63.36" y2="36.960003" class="solid"></line>
  </g>
  <g>
    <line x1="71.28001" y1="0" x2="71.28001" y2="55.440002" class="broken"></line>
    <line x1="68.64" y1="47.52" x2="71.28001" y2="47.52" class="solid"></line>
  </g>
  <g>
    <line x1="124.08" y1="0" x2="124.08" y2="55.440002" class="broken"></line>
    <line x1="121.44" y1="36.960003" x2="124.08" y2="36.960003" class="solid"></line>
    <line x1="121.44" y1="47.52" x2="124.08" y2="47.52" class="solid"></line>
  </g>
  <g>
    <line x1="13.200001" y1="10.56" x2="13.200001" y2="55.440002" class="broken"></line>
    <line x1="10.56" y1="47.52" x2="13.200001" y2="47.52" class="solid"></line>
  </g>
  <g>
    <line x1="18.480001" y1="15.84" x2="18.480001" y2="36.960003" class="solid"></line>
    <line x1="10.56" y1="36.960003" x2="18.480001" y2="36.960003" class="solid"></line>
  </g>
  <g>
    <line x1="44.88" y1="10.56" x2="44.88" y2="55.440002" class="broken"></line>
    <line x1="44.88" y1="47.52" x2="47.52" y2="47.52" class="solid"></line>
  </g>
  <g>
    <line x1="50.160004" y1="26.400002" x2="50.160004" y2="44.88" class="solid"></line>
    <line x1="42.24" y1="36.960003" x2="50.160004" y2="36.960003" class="solid"></line>
  </g>
  <g>
    <line x1="108.240005" y1="21.12" x2="108.240005" y2="26.400002" class="solid"></line>
    <line x1="108.240005" y1="26.400002" x2="113.520004" y2="26.400002" class="solid"></line>
    <line x1="113.520004" y1="21.12" x2="113.520004" y2="55.440002" class="solid"></line>
    <line x1="113.520004" y1="36.960003" x2="116.16" y2="36.960003" class="solid"></line>
  </g>
  <g>
    <line x1="2.64" y1="36.960003" x2="5.28" y2="36.960003" class="solid"></line>
    <line x1="2.64" y1="36.960003" x2="2.64" y2="55.440002" class="solid"></line>
    <line x1="2.64" y1="47.52" x2="5.28" y2="47.52" class="solid"></line>
  </g>
  <g>
    <line x1="97.68" y1="39.600002" x2="97.68" y2="55.440002" class="solid"></line>
    <line x1="97.68" y1="47.52" x2="100.32001" y2="47.52" class="solid"></line>
  </g>
  <g>
    <line x1="102.96001" y1="31.68" x2="102.96001" y2="44.88" class="solid"></line>
    <line x1="100.32001" y1="36.960003" x2="102.96001" y2="36.960003" class="solid"></line>
  </g>
  <g>
    <line x1="105.600006" y1="47.52" x2="116.16" y2="47.52" class="solid"></line>
    <line x1="108.240005" y1="47.52" x2="108.240005" y2="55.440002" class="solid"></line>
  </g>
  <g>
    <line x1="153.12001" y1="58.08" x2="158.40001" y2="58.08" class="solid"></line>
    <line x1="155.76001" y1="58.08" x2="155.76001" y2="66" class="solid"></line>
  </g>
</svg>
