<svg xmlns="http://www.w3.org/2000/svg" width="179.52" height="168.96" class="svgbob">
  <style>.filled{
	fill: none !important;
}

text{
    font-family: monospace !important;
    font-weight: bold !important;
    fill: red !important;
    visibility: visible;
}
marker > *{
    stroke: darkorange !important;
    visibility: visible;
}
body.check-text text,
body.check-text marker > *{
    visibility: hidden;
}.svgbob line, .svgbob path, .svgbob circle, .svgbob rect, .svgbob polygon {
  stroke: black;
  stroke-width: 2;
  stroke-opacity: 1;
  fill-opacity: 1;
  stroke-linecap: round;
  stroke-linejoin: miter;
}

.svgbob text {
  white-space: pre;
  fill: black;
  font-family: Iosevka Fixed, monospace;
  font-size: 14px;
}

.svgbob rect.backdrop {
  stroke: none;
  fill: white;
}

.svgbob .broken {
  stroke-dasharray: 8;
}

.svgbob .filled {
  fill: black;
}

.svgbob .bg_filled {
  fill: white;
  stroke-width: 1;
}

.svgbob .nofill {
  fill: white;
}

.svgbob .end_marked_arrow {
  marker-end: url(#arrow);
}

.svgbob .start_marked_arrow {
  marker-start: url(#arrow);
}

.svgbob .end_marked_diamond {
  marker-end: url(#diamond);
}

.svgbob .start_marked_diamond {
  marker-start: url(#diamond);
}

.svgbob .end_marked_circle {
  marker-end: url(#circle);
}

.svgbob .start_marked_circle {
  marker-start: url(#circle);
}

.svgbob .end_marked_open_circle {
  marker-end: url(#open_circle);
}

.svgbob .start_marked_open_circle {
  marker-start: url(#open_circle);
}

.svgbob .end_marked_big_open_circle {
  marker-end: url(#big_open_circle);
}

.svgbob .start_marked_big_open_circle {
  marker-start: url(#big_open_circle);
}

</style>
  <defs>
    <marker id="arrow" viewBox="-2 -2 8 8" refX="4" refY="2" markerWidth="7" markerHeight="7" orient="auto-start-reverse">
      <polygon points="0,0 0,4 4,2 0,0"></polygon>
    </marker>
    <marker id="diamond" viewBox="-2 -2 8 8" refX="4" refY="2" markerWidth="7" markerHeight="7" orient="auto-start-reverse">
      <polygon points="0,2 2,0 4,2 2,4 0,2"></polygon>
    </marker>
    <marker id="circle" viewBox="0 0 8 8" refX="4" refY="4" markerWidth="7" markerHeight="7" orient="auto-start-reverse">
      <circle cx="4" cy="4" r="2" class="filled"></circle>
    </marker>
    <marker id="open_circle" viewBox="0 0 8 8" refX="4" refY="4" markerWidth="7" markerHeight="7" orient="auto-start-reverse">
      <circle cx="4" cy="4" r="2" class="bg_filled"></circle>
    </marker>
    <marker id="big_open_circle" viewBox="0 0 8 8" refX="4" refY="4" markerWidth="7" markerHeight="7" orient="auto-start-reverse">
      <circle cx="4" cy="4" r="3" class="bg_filled"></circle>
    </marker>
  </defs>
  <rect class="backdrop" x="0" y="0" width="179.52" height="168.96"></rect>
  <text x="165" y="29.04" >.,</text>
  <text x="80.520004" y="39.600002" >.</text>
  <text x="159.72" y="39.600002" >,Wt</text>
  <text x="80.520004" y="50.160004" >Ef.</text>
  <text x="154.44" y="50.160004" >i#D.</text>
  <text x="80.520004" y="60.72" >E</text>
  <rect x="84.48" y="55.440002" width="5.279999" height="5.279999" class="solid filled" rx="0"></rect>
  <line x1="87.12" y1="60.72" x2="87.12" y2="66" class="solid"></line>
  <text x="91.08" y="60.72" >Wi</text>
  <text x="149.16" y="60.72" >f#f</text>
  <text x="80.520004" y="71.28001" >E</text>
  <rect x="84.48" y="66" width="5.279999" height="5.2800064" class="solid filled" rx="0"></rect>
  <line x1="87.12" y1="71.28001" x2="87.12" y2="76.560005" class="solid"></line>
  <text x="91.08" y="71.28001" >K#D:</text>
  <text x="138.6" y="71.28001" >.D#i</text>
  <text x="80.520004" y="81.840004" >E</text>
  <rect x="84.48" y="76.560005" width="5.279999" height="5.279999" class="solid filled" rx="0"></rect>
  <line x1="87.12" y1="81.840004" x2="87.12" y2="87.12" class="solid"></line>
  <text x="91.08" y="81.840004" >t,E</text>
  <line x1="108.240005" y1="73.920006" x2="108.240005" y2="76.560005" class="solid"></line>
  <rect x="105.600006" y="76.560005" width="5.279999" height="5.279999" class="solid filled" rx="0"></rect>
  <line x1="108.240005" y1="81.840004" x2="108.240005" y2="87.12" class="solid"></line>
  <text x="112.200005" y="81.840004" >f.</text>
  <text x="133.32" y="81.840004" >:KW,</text>
  <text x="80.520004" y="92.4" >E</text>
  <rect x="84.48" y="87.12" width="5.279999" height="5.279999" class="solid filled" rx="0"></rect>
  <line x1="87.12" y1="92.4" x2="87.12" y2="97.68" class="solid"></line>
  <text x="91.08" y="92.4" >WEE</text>
  <rect x="105.600006" y="87.12" width="5.279999" height="5.279999" class="solid filled" rx="0"></rect>
  <rect x="110.880005" y="87.12" width="5.279999" height="5.279999" class="solid filled" rx="0"></rect>
  <text x="117.48" y="92.4" >Wt</text>
  <text x="133.32" y="92.4" >t#f</text>
  <text x="80.520004" y="102.96001" >E</text>
  <rect x="84.48" y="97.68" width="5.279999" height="5.2800064" class="solid filled" rx="0"></rect>
  <line x1="87.12" y1="102.96001" x2="87.12" y2="108.240005" class="solid"></line>
  <rect x="89.76" y="97.68" width="5.279999" height="5.2800064" class="solid filled" rx="0"></rect>
  <text x="96.36" y="102.96001" >Ei;;;;.</text>
  <text x="138.6" y="102.96001" >;</text>
  <rect x="142.56001" y="97.68" width="5.279999" height="5.2800064" class="solid filled" rx="0"></rect>
  <line x1="145.20001" y1="102.96001" x2="145.20001" y2="105.600006" class="solid"></line>
  <text x="149.16" y="102.96001" >G</text>
  <text x="80.520004" y="113.520004" >E</text>
  <rect x="84.48" y="108.240005" width="5.279999" height="5.279999" class="solid filled" rx="0"></rect>
  <line x1="87.12" y1="113.520004" x2="87.12" y2="118.8" class="solid"></line>
  <text x="91.08" y="113.520004" >DWWt</text>
  <text x="143.88" y="113.520004" >:KE.</text>
  <text x="80.520004" y="124.08" >E</text>
  <rect x="84.48" y="118.8" width="5.279999" height="5.279999" class="solid filled" rx="0"></rect>
  <line x1="87.12" y1="124.08" x2="87.12" y2="129.36" class="solid"></line>
  <text x="91.08" y="124.08" >t</text>
  <text x="101.64001" y="124.08" >f#K;</text>
  <text x="149.16" y="124.08" >.DW:</text>
  <text x="80.520004" y="134.64" >E</text>
  <rect x="84.48" y="129.36" width="5.279999" height="5.279999" class="solid filled" rx="0"></rect>
  <text x="91.08" y="134.64" >Dfff</text>
  <rect x="110.880005" y="129.36" width="5.279999" height="5.279999" class="solid filled" rx="0"></rect>
  <rect x="116.16" y="129.36" width="5.279999" height="5.279999" class="solid filled" rx="0"></rect>
  <text x="122.76" y="134.64" >E,</text>
  <text x="159.72" y="134.64" >L</text>
  <line x1="166.32" y1="126.72" x2="166.32" y2="129.36" class="solid"></line>
  <rect x="163.68001" y="129.36" width="5.279999" height="5.279999" class="solid filled" rx="0"></rect>
  <text x="170.28001" y="134.64" >,</text>
  <text x="80.520004" y="145.20001" >jLLLLLLLLL;</text>
  <text x="165" y="145.20001" >jt</text>
  <text x="64.68" y="50.160004" >..</text>
  <text x="59.4" y="60.72" >;W,</text>
  <text x="54.120003" y="71.28001" >j</text>
  <rect x="58.08" y="66" width="5.279999" height="5.2800064" class="solid filled" rx="0"></rect>
  <line x1="60.72" y1="71.28001" x2="60.72" y2="76.560005" class="solid"></line>
  <rect x="63.36" y="66" width="5.279999" height="5.2800064" class="solid filled" rx="0"></rect>
  <line x1="66" y1="71.28001" x2="66" y2="76.560005" class="solid"></line>
  <text x="69.96" y="71.28001" >,</text>
  <text x="48.84" y="81.840004" >G</text>
  <rect x="52.800003" y="76.560005" width="5.279999" height="5.279999" class="solid filled" rx="0"></rect>
  <line x1="55.440002" y1="81.840004" x2="55.440002" y2="87.12" class="solid"></line>
  <rect x="58.08" y="76.560005" width="5.279999" height="5.279999" class="solid filled" rx="0"></rect>
  <line x1="60.72" y1="81.840004" x2="60.72" y2="87.12" class="solid"></line>
  <rect x="63.36" y="76.560005" width="5.279999" height="5.279999" class="solid filled" rx="0"></rect>
  <line x1="66" y1="81.840004" x2="66" y2="87.12" class="solid"></line>
  <text x="69.96" y="81.840004" >,</text>
  <text x="38.280003" y="92.4" >:E</text>
  <rect x="47.52" y="87.12" width="5.2800026" height="5.279999" class="solid filled" rx="0"></rect>
  <rect x="52.800003" y="87.12" width="5.279999" height="5.279999" class="solid filled" rx="0"></rect>
  <rect x="58.08" y="87.12" width="5.279999" height="5.279999" class="solid filled" rx="0"></rect>
  <line x1="60.72" y1="92.4" x2="60.72" y2="97.68" class="solid"></line>
  <rect x="63.36" y="87.12" width="5.279999" height="5.279999" class="solid filled" rx="0"></rect>
  <line x1="66" y1="92.4" x2="66" y2="97.68" class="solid"></line>
  <text x="69.96" y="92.4" >,</text>
  <text x="33" y="102.96001" >;W</text>
  <rect x="42.24" y="97.68" width="5.279999" height="5.2800064" class="solid filled" rx="0"></rect>
  <line x1="44.88" y1="102.96001" x2="44.88" y2="108.240005" class="solid"></line>
  <text x="48.84" y="102.96001" >DG</text>
  <rect x="58.08" y="97.68" width="5.279999" height="5.2800064" class="solid filled" rx="0"></rect>
  <line x1="60.72" y1="102.96001" x2="60.72" y2="108.240005" class="solid"></line>
  <rect x="63.36" y="97.68" width="5.279999" height="5.2800064" class="solid filled" rx="0"></rect>
  <line x1="66" y1="102.96001" x2="66" y2="108.240005" class="solid"></line>
  <text x="69.96" y="102.96001" >,</text>
  <text x="27.720001" y="113.520004" >j</text>
  <rect x="31.68" y="108.240005" width="5.2800026" height="5.279999" class="solid filled" rx="0"></rect>
  <line x1="34.32" y1="113.520004" x2="34.32" y2="118.8" class="solid"></line>
  <rect x="36.960003" y="108.240005" width="5.279999" height="5.279999" class="solid filled" rx="0"></rect>
  <rect x="42.24" y="108.240005" width="5.279999" height="5.279999" class="solid filled" rx="0"></rect>
  <text x="48.84" y="113.520004" >DW</text>
  <rect x="58.08" y="108.240005" width="5.279999" height="5.279999" class="solid filled" rx="0"></rect>
  <line x1="60.72" y1="113.520004" x2="60.72" y2="118.8" class="solid"></line>
  <rect x="63.36" y="108.240005" width="5.279999" height="5.279999" class="solid filled" rx="0"></rect>
  <line x1="66" y1="113.520004" x2="66" y2="118.8" class="solid"></line>
  <text x="69.96" y="113.520004" >,</text>
  <text x="22.44" y="124.08" >G</text>
  <rect x="26.400002" y="118.8" width="5.279999" height="5.279999" class="solid filled" rx="0"></rect>
  <rect x="31.68" y="118.8" width="5.2800026" height="5.279999" class="solid filled" rx="0"></rect>
  <line x1="34.32" y1="124.08" x2="34.32" y2="126.72" class="solid"></line>
  <text x="38.280003" y="124.08" >i,,G</text>
  <rect x="58.08" y="118.8" width="5.279999" height="5.279999" class="solid filled" rx="0"></rect>
  <line x1="60.72" y1="124.08" x2="60.72" y2="129.36" class="solid"></line>
  <rect x="63.36" y="118.8" width="5.279999" height="5.279999" class="solid filled" rx="0"></rect>
  <line x1="66" y1="124.08" x2="66" y2="129.36" class="solid"></line>
  <text x="69.96" y="124.08" >,</text>
  <text x="11.88" y="134.64" >:K#K:</text>
  <text x="54.120003" y="134.64" >L</text>
  <rect x="58.08" y="129.36" width="5.279999" height="5.279999" class="solid filled" rx="0"></rect>
  <line x1="60.72" y1="134.64" x2="60.72" y2="139.92" class="solid"></line>
  <rect x="63.36" y="129.36" width="5.279999" height="5.279999" class="solid filled" rx="0"></rect>
  <line x1="66" y1="134.64" x2="66" y2="139.92" class="solid"></line>
  <text x="69.96" y="134.64" >,</text>
  <text x="6.6000004" y="145.20001" >;</text>
  <line x1="13.200001" y1="137.28" x2="13.200001" y2="139.92" class="solid"></line>
  <rect x="10.56" y="139.92" width="5.2799997" height="5.280014" class="solid filled" rx="0"></rect>
  <rect x="15.84" y="139.92" width="5.2800007" height="5.280014" class="solid filled" rx="0"></rect>
  <text x="22.44" y="145.20001" >D.</text>
  <text x="54.120003" y="145.20001" >L</text>
  <rect x="58.08" y="139.92" width="5.279999" height="5.280014" class="solid filled" rx="0"></rect>
  <rect x="63.36" y="139.92" width="5.279999" height="5.280014" class="solid filled" rx="0"></rect>
  <text x="69.96" y="145.20001" >,</text>
  <text x="6.6000004" y="155.76001" >,,,</text>
  <text x="54.120003" y="155.76001" >.,,</text>
</svg>
