<svg xmlns="http://www.w3.org/2000/svg" width="168.96" height="84.48" class="svgbob">
  <style>.filled{
	fill: none !important;
}

text{
    font-family: monospace !important;
    font-weight: bold !important;
    fill: red !important;
    visibility: visible;
}
marker > *{
    stroke: darkorange !important;
    visibility: visible;
}
body.check-text text,
body.check-text marker > *{
    visibility: hidden;
}.svgbob line, .svgbob path, .svgbob circle, .svgbob rect, .svgbob polygon {
  stroke: black;
  stroke-width: 2;
  stroke-opacity: 1;
  fill-opacity: 1;
  stroke-linecap: round;
  stroke-linejoin: miter;
}

.svgbob text {
  white-space: pre;
  fill: black;
  font-family: Iosevka Fixed, monospace;
  font-size: 14px;
}

.svgbob rect.backdrop {
  stroke: none;
  fill: white;
}

.svgbob .broken {
  stroke-dasharray: 8;
}

.svgbob .filled {
  fill: black;
}

.svgbob .bg_filled {
  fill: white;
  stroke-width: 1;
}

.svgbob .nofill {
  fill: white;
}

.svgbob .end_marked_arrow {
  marker-end: url(#arrow);
}

.svgbob .start_marked_arrow {
  marker-start: url(#arrow);
}

.svgbob .end_marked_diamond {
  marker-end: url(#diamond);
}

.svgbob .start_marked_diamond {
  marker-start: url(#diamond);
}

.svgbob .end_marked_circle {
  marker-end: url(#circle);
}

.svgbob .start_marked_circle {
  marker-start: url(#circle);
}

.svgbob .end_marked_open_circle {
  marker-end: url(#open_circle);
}

.svgbob .start_marked_open_circle {
  marker-start: url(#open_circle);
}

.svgbob .end_marked_big_open_circle {
  marker-end: url(#big_open_circle);
}

.svgbob .start_marked_big_open_circle {
  marker-start: url(#big_open_circle);
}

</style>
  <defs>
    <marker id="arrow" viewBox="-2 -2 8 8" refX="4" refY="2" markerWidth="7" markerHeight="7" orient="auto-start-reverse">
      <polygon points="0,0 0,4 4,2 0,0"></polygon>
    </marker>
    <marker id="diamond" viewBox="-2 -2 8 8" refX="4" refY="2" markerWidth="7" markerHeight="7" orient="auto-start-reverse">
      <polygon points="0,2 2,0 4,2 2,4 0,2"></polygon>
    </marker>
    <marker id="circle" viewBox="0 0 8 8" refX="4" refY="4" markerWidth="7" markerHeight="7" orient="auto-start-reverse">
      <circle cx="4" cy="4" r="2" class="filled"></circle>
    </marker>
    <marker id="open_circle" viewBox="0 0 8 8" refX="4" refY="4" markerWidth="7" markerHeight="7" orient="auto-start-reverse">
      <circle cx="4" cy="4" r="2" class="bg_filled"></circle>
    </marker>
    <marker id="big_open_circle" viewBox="0 0 8 8" refX="4" refY="4" markerWidth="7" markerHeight="7" orient="auto-start-reverse">
      <circle cx="4" cy="4" r="3" class="bg_filled"></circle>
    </marker>
  </defs>
  <rect class="backdrop" x="0" y="0" width="168.96" height="84.48"></rect>
  <text x="33" y="7.92" >[.</text>
  <text x="80.520004" y="7.92" >[..</text>
  <text x="27.720001" y="18.480001" >[.</text>
  <text x="43.56" y="18.480001" >..</text>
  <text x="80.520004" y="18.480001" >[..</text>
  <text x="22.44" y="29.04" >[.</text>
  <text x="43.56" y="29.04" >[..</text>
  <text x="80.520004" y="29.04" >[..</text>
  <text x="17.16" y="39.600002" >[..</text>
  <text x="48.84" y="39.600002" >[..</text>
  <text x="80.520004" y="39.600002" >[..</text>
  <text x="11.88" y="50.160004" >[......</text>
  <text x="54.120003" y="50.160004" >[..</text>
  <text x="80.520004" y="50.160004" >[..</text>
  <text x="6.6000004" y="60.72" >[..</text>
  <text x="59.4" y="60.72" >[..</text>
  <text x="80.520004" y="60.72" >[..</text>
  <text x="1.32" y="71.28001" >[..</text>
  <text x="64.68" y="71.28001" >[..[..</text>
  <text x="143.88" y="29.04" >[...</text>
  <text x="101.64001" y="39.600002" >[..</text>
  <text x="133.32" y="39.600002" >[..</text>
  <text x="112.200005" y="50.160004" >[..[..</text>
  <text x="112.200005" y="60.72" >[..</text>
  <text x="133.32" y="60.72" >[..</text>
  <text x="101.64001" y="71.28001" >[..</text>
  <text x="143.88" y="71.28001" >[...</text>
</svg>
