<svg xmlns="http://www.w3.org/2000/svg" width="142.56001" height="73.920006" class="svgbob">
  <style>.filled{
	fill: none !important;
}

text{
    font-family: monospace !important;
    font-weight: bold !important;
    fill: red !important;
    visibility: visible;
}
marker > *{
    stroke: darkorange !important;
    visibility: visible;
}
body.check-text text,
body.check-text marker > *{
    visibility: hidden;
}.svgbob line, .svgbob path, .svgbob circle, .svgbob rect, .svgbob polygon {
  stroke: black;
  stroke-width: 2;
  stroke-opacity: 1;
  fill-opacity: 1;
  stroke-linecap: round;
  stroke-linejoin: miter;
}

.svgbob text {
  white-space: pre;
  fill: black;
  font-family: Iosevka Fixed, monospace;
  font-size: 14px;
}

.svgbob rect.backdrop {
  stroke: none;
  fill: white;
}

.svgbob .broken {
  stroke-dasharray: 8;
}

.svgbob .filled {
  fill: black;
}

.svgbob .bg_filled {
  fill: white;
  stroke-width: 1;
}

.svgbob .nofill {
  fill: white;
}

.svgbob .end_marked_arrow {
  marker-end: url(#arrow);
}

.svgbob .start_marked_arrow {
  marker-start: url(#arrow);
}

.svgbob .end_marked_diamond {
  marker-end: url(#diamond);
}

.svgbob .start_marked_diamond {
  marker-start: url(#diamond);
}

.svgbob .end_marked_circle {
  marker-end: url(#circle);
}

.svgbob .start_marked_circle {
  marker-start: url(#circle);
}

.svgbob .end_marked_open_circle {
  marker-end: url(#open_circle);
}

.svgbob .start_marked_open_circle {
  marker-start: url(#open_circle);
}

.svgbob .end_marked_big_open_circle {
  marker-end: url(#big_open_circle);
}

.svgbob .start_marked_big_open_circle {
  marker-start: url(#big_open_circle);
}

</style>
  <defs>
    <marker id="arrow" viewBox="-2 -2 8 8" refX="4" refY="2" markerWidth="7" markerHeight="7" orient="auto-start-reverse">
      <polygon points="0,0 0,4 4,2 0,0"></polygon>
    </marker>
    <marker id="diamond" viewBox="-2 -2 8 8" refX="4" refY="2" markerWidth="7" markerHeight="7" orient="auto-start-reverse">
      <polygon points="0,2 2,0 4,2 2,4 0,2"></polygon>
    </marker>
    <marker id="circle" viewBox="0 0 8 8" refX="4" refY="4" markerWidth="7" markerHeight="7" orient="auto-start-reverse">
      <circle cx="4" cy="4" r="2" class="filled"></circle>
    </marker>
    <marker id="open_circle" viewBox="0 0 8 8" refX="4" refY="4" markerWidth="7" markerHeight="7" orient="auto-start-reverse">
      <circle cx="4" cy="4" r="2" class="bg_filled"></circle>
    </marker>
    <marker id="big_open_circle" viewBox="0 0 8 8" refX="4" refY="4" markerWidth="7" markerHeight="7" orient="auto-start-reverse">
      <circle cx="4" cy="4" r="3" class="bg_filled"></circle>
    </marker>
  </defs>
  <rect class="backdrop" x="0" y="0" width="142.56001" height="73.920006"></rect>
  <text x="96.36" y="7.92" >.</text>
  <text x="85.8" y="18.480001" >.</text>
  <line x1="97.68" y1="5.28" x2="87.12" y2="15.84" class="broken"></line>
  <text x="69.96" y="29.04" >.</text>
  <text x="80.520004" y="29.04" >;</text>
  <line x1="84.48" y1="26.400002" x2="89.76" y2="26.400002" class="solid"></line>
  <text x="91.08" y="29.04" >.</text>
  <text x="112.200005" y="29.04" >.</text>
  <line x1="116.16" y1="26.400002" x2="121.44" y2="26.400002" class="solid"></line>
  <text x="122.76" y="29.04" >.</text>
  <text x="38.280003" y="39.600002" >.</text>
  <line x1="42.24" y1="42.24" x2="63.36" y2="42.24" class="solid"></line>
  <text x="64.68" y="39.600002" >.&#39;;</text>
  <text x="96.36" y="39.600002" >;</text>
  <text x="106.920006" y="39.600002" >;</text>
  <text x="11.88" y="50.160004" >:&#39;</text>
  <text x="64.68" y="50.160004" >.&#39;`::&#39;`</text>
  <line x1="100.32001" y1="47.52" x2="105.600006" y2="47.52" class="solid"></line>
  <text x="106.920006" y="50.160004" >`;;;;&#39;</text>
  <text x="17.16" y="60.72" >.</text>
  <g>
    <line x1="52.800003" y1="0" x2="26.400002" y2="52.800003" class="solid"></line>
    <line x1="52.800003" y1="0" x2="55.440002" y2="5.28" class="solid"></line>
    <line x1="55.440002" y1="5.28" x2="55.440002" y2="55.440002" class="solid"></line>
    <path d="M 55.440002,55.440002 A 2.64,2.64 0,0,0 58.08,58.08" class="nofill"></path>
    <line x1="58.08" y1="58.08" x2="63.36" y2="58.08" class="solid"></line>
    <path d="M 10.56,47.52 A 5.28,5.28 0,0,0 6.6000004,50.160004" class="nofill"></path>
    <line x1="6.6000004" y1="50.160004" x2="5.28" y2="52.800003" class="solid"></line>
    <path d="M 5.28,52.800003 A 10.56,10.56 0,0,0 5.28,63.36" class="nofill"></path>
    <line x1="5.28" y1="63.36" x2="15.84" y2="63.36" class="solid"></line>
    <path d="M 26.400002,52.800003 A 21.12,21.12 0,0,1 15.84,63.36" class="nofill"></path>
    <line x1="66" y1="52.800003" x2="66" y2="55.440002" class="solid"></line>
    <path d="M 66,55.440002 A 2.64,2.64 0,0,1 63.36,58.08" class="nofill"></path>
  </g>
  <g>
    <line x1="26.400002" y1="21.12" x2="31.68" y2="21.12" class="solid"></line>
    <path d="M 26.400002,21.12 A 10.56,10.56 0,0,0 26.400002,31.68" class="nofill"></path>
    <line x1="26.400002" y1="31.68" x2="27.720001" y2="34.32" class="solid"></line>
    <path d="M 27.720001,34.32 A 5.28,5.28 0,0,0 31.68,36.960003" class="nofill"></path>
  </g>
</svg>
