<svg xmlns="http://www.w3.org/2000/svg" width="68.64" height="63.36" class="svgbob">
  <style>.filled{
	fill: none !important;
}

text{
    font-family: monospace !important;
    font-weight: bold !important;
    fill: red !important;
    visibility: visible;
}
marker > *{
    stroke: darkorange !important;
    visibility: visible;
}
body.check-text text,
body.check-text marker > *{
    visibility: hidden;
}.svgbob line, .svgbob path, .svgbob circle, .svgbob rect, .svgbob polygon {
  stroke: black;
  stroke-width: 2;
  stroke-opacity: 1;
  fill-opacity: 1;
  stroke-linecap: round;
  stroke-linejoin: miter;
}

.svgbob text {
  white-space: pre;
  fill: black;
  font-family: Iosevka Fixed, monospace;
  font-size: 14px;
}

.svgbob rect.backdrop {
  stroke: none;
  fill: white;
}

.svgbob .broken {
  stroke-dasharray: 8;
}

.svgbob .filled {
  fill: black;
}

.svgbob .bg_filled {
  fill: white;
  stroke-width: 1;
}

.svgbob .nofill {
  fill: white;
}

.svgbob .end_marked_arrow {
  marker-end: url(#arrow);
}

.svgbob .start_marked_arrow {
  marker-start: url(#arrow);
}

.svgbob .end_marked_diamond {
  marker-end: url(#diamond);
}

.svgbob .start_marked_diamond {
  marker-start: url(#diamond);
}

.svgbob .end_marked_circle {
  marker-end: url(#circle);
}

.svgbob .start_marked_circle {
  marker-start: url(#circle);
}

.svgbob .end_marked_open_circle {
  marker-end: url(#open_circle);
}

.svgbob .start_marked_open_circle {
  marker-start: url(#open_circle);
}

.svgbob .end_marked_big_open_circle {
  marker-end: url(#big_open_circle);
}

.svgbob .start_marked_big_open_circle {
  marker-start: url(#big_open_circle);
}

</style>
  <defs>
    <marker id="arrow" viewBox="-2 -2 8 8" refX="4" refY="2" markerWidth="7" markerHeight="7" orient="auto-start-reverse">
      <polygon points="0,0 0,4 4,2 0,0"></polygon>
    </marker>
    <marker id="diamond" viewBox="-2 -2 8 8" refX="4" refY="2" markerWidth="7" markerHeight="7" orient="auto-start-reverse">
      <polygon points="0,2 2,0 4,2 2,4 0,2"></polygon>
    </marker>
    <marker id="circle" viewBox="0 0 8 8" refX="4" refY="4" markerWidth="7" markerHeight="7" orient="auto-start-reverse">
      <circle cx="4" cy="4" r="2" class="filled"></circle>
    </marker>
    <marker id="open_circle" viewBox="0 0 8 8" refX="4" refY="4" markerWidth="7" markerHeight="7" orient="auto-start-reverse">
      <circle cx="4" cy="4" r="2" class="bg_filled"></circle>
    </marker>
    <marker id="big_open_circle" viewBox="0 0 8 8" refX="4" refY="4" markerWidth="7" markerHeight="7" orient="auto-start-reverse">
      <circle cx="4" cy="4" r="3" class="bg_filled"></circle>
    </marker>
  </defs>
  <rect class="backdrop" x="0" y="0" width="68.64" height="63.36"></rect>
  <text x="6.6000004" y="7.92" >,.</text>
  <text x="59.4" y="29.04" >.</text>
  <text x="59.4" y="50.160004" >&#39;</text>
  <g>
    <line x1="5.28" y1="10.56" x2="2.64" y2="15.84" class="solid"></line>
    <line x1="2.64" y1="15.84" x2="2.64" y2="44.88" class="solid"></line>
    <line x1="15.84" y1="10.56" x2="18.480001" y2="15.84" class="solid"></line>
    <line x1="18.480001" y1="15.84" x2="18.480001" y2="44.88" class="solid"></line>
    <line x1="2.64" y1="26.400002" x2="18.480001" y2="26.400002" class="solid"></line>
  </g>
  <g>
    <line x1="29.04" y1="7.92" x2="29.04" y2="44.88" class="solid"></line>
    <line x1="29.04" y1="26.400002" x2="36.960003" y2="26.400002" class="solid"></line>
    <path d="M 36.960003,26.400002 A 2.64,2.64 0,0,1 39.600002,29.04" class="nofill"></path>
    <line x1="39.600002" y1="29.04" x2="39.600002" y2="44.88" class="solid"></line>
    <path d="M 29.04,44.88 A 2.64,2.64 0,0,0 31.68,47.52" class="nofill"></path>
    <line x1="31.68" y1="47.52" x2="36.960003" y2="47.52" class="solid"></line>
    <path d="M 39.600002,44.88 A 2.64,2.64 0,0,1 36.960003,47.52" class="nofill"></path>
  </g>
  <g>
    <path d="M 52.800003,26.400002 A 2.64,2.64 0,0,0 50.160004,29.04" class="nofill"></path>
    <line x1="50.160004" y1="29.04" x2="50.160004" y2="44.88" class="solid"></line>
    <line x1="52.800003" y1="26.400002" x2="58.08" y2="26.400002" class="solid"></line>
    <path d="M 50.160004,44.88 A 2.64,2.64 0,0,0 52.800003,47.52" class="nofill"></path>
    <line x1="52.800003" y1="47.52" x2="58.08" y2="47.52" class="solid"></line>
  </g>
</svg>
