<svg xmlns="http://www.w3.org/2000/svg" width="168.96" height="73.920006" class="svgbob">
  <style>.filled{
	fill: none !important;
}

text{
    font-family: monospace !important;
    font-weight: bold !important;
    fill: red !important;
    visibility: visible;
}
marker > *{
    stroke: darkorange !important;
    visibility: visible;
}
body.check-text text,
body.check-text marker > *{
    visibility: hidden;
}.svgbob line, .svgbob path, .svgbob circle, .svgbob rect, .svgbob polygon {
  stroke: black;
  stroke-width: 2;
  stroke-opacity: 1;
  fill-opacity: 1;
  stroke-linecap: round;
  stroke-linejoin: miter;
}

.svgbob text {
  white-space: pre;
  fill: black;
  font-family: Iosevka Fixed, monospace;
  font-size: 14px;
}

.svgbob rect.backdrop {
  stroke: none;
  fill: white;
}

.svgbob .broken {
  stroke-dasharray: 8;
}

.svgbob .filled {
  fill: black;
}

.svgbob .bg_filled {
  fill: white;
  stroke-width: 1;
}

.svgbob .nofill {
  fill: white;
}

.svgbob .end_marked_arrow {
  marker-end: url(#arrow);
}

.svgbob .start_marked_arrow {
  marker-start: url(#arrow);
}

.svgbob .end_marked_diamond {
  marker-end: url(#diamond);
}

.svgbob .start_marked_diamond {
  marker-start: url(#diamond);
}

.svgbob .end_marked_circle {
  marker-end: url(#circle);
}

.svgbob .start_marked_circle {
  marker-start: url(#circle);
}

.svgbob .end_marked_open_circle {
  marker-end: url(#open_circle);
}

.svgbob .start_marked_open_circle {
  marker-start: url(#open_circle);
}

.svgbob .end_marked_big_open_circle {
  marker-end: url(#big_open_circle);
}

.svgbob .start_marked_big_open_circle {
  marker-start: url(#big_open_circle);
}

</style>
  <defs>
    <marker id="arrow" viewBox="-2 -2 8 8" refX="4" refY="2" markerWidth="7" markerHeight="7" orient="auto-start-reverse">
      <polygon points="0,0 0,4 4,2 0,0"></polygon>
    </marker>
    <marker id="diamond" viewBox="-2 -2 8 8" refX="4" refY="2" markerWidth="7" markerHeight="7" orient="auto-start-reverse">
      <polygon points="0,2 2,0 4,2 2,4 0,2"></polygon>
    </marker>
    <marker id="circle" viewBox="0 0 8 8" refX="4" refY="4" markerWidth="7" markerHeight="7" orient="auto-start-reverse">
      <circle cx="4" cy="4" r="2" class="filled"></circle>
    </marker>
    <marker id="open_circle" viewBox="0 0 8 8" refX="4" refY="4" markerWidth="7" markerHeight="7" orient="auto-start-reverse">
      <circle cx="4" cy="4" r="2" class="bg_filled"></circle>
    </marker>
    <marker id="big_open_circle" viewBox="0 0 8 8" refX="4" refY="4" markerWidth="7" markerHeight="7" orient="auto-start-reverse">
      <circle cx="4" cy="4" r="3" class="bg_filled"></circle>
    </marker>
  </defs>
  <rect class="backdrop" x="0" y="0" width="168.96" height="73.920006"></rect>
  <g>
    <line x1="31.68" y1="21.12" x2="47.52" y2="21.12" class="solid"></line>
    <line x1="42.24" y1="10.56" x2="36.960003" y2="21.12" class="solid"></line>
    <line x1="52.800003" y1="10.56" x2="47.52" y2="21.12" class="solid"></line>
  </g>
  <g>
    <line x1="15.84" y1="31.68" x2="21.12" y2="31.68" class="solid"></line>
    <line x1="26.400002" y1="21.12" x2="5.28" y2="63.36" class="solid"></line>
    <line x1="5.28" y1="52.800003" x2="10.56" y2="52.800003" class="solid"></line>
    <line x1="0" y1="63.36" x2="5.28" y2="63.36" class="solid"></line>
  </g>
  <g>
    <line x1="47.52" y1="31.68" x2="52.800003" y2="31.68" class="solid"></line>
    <line x1="58.08" y1="21.12" x2="36.960003" y2="63.36" class="solid"></line>
    <line x1="10.56" y1="42.24" x2="47.52" y2="42.24" class="solid"></line>
    <line x1="31.68" y1="31.68" x2="26.400002" y2="42.24" class="solid"></line>
    <line x1="42.24" y1="31.68" x2="36.960003" y2="42.24" class="solid"></line>
    <line x1="36.960003" y1="52.800003" x2="42.24" y2="52.800003" class="solid"></line>
    <line x1="31.68" y1="63.36" x2="36.960003" y2="63.36" class="solid"></line>
  </g>
  <g>
    <line x1="73.920006" y1="21.12" x2="79.200005" y2="21.12" class="solid"></line>
    <line x1="84.48" y1="10.56" x2="58.08" y2="63.36" class="solid"></line>
    <line x1="63.36" y1="42.24" x2="68.64" y2="42.24" class="solid"></line>
    <line x1="58.08" y1="52.800003" x2="63.36" y2="52.800003" class="solid"></line>
    <line x1="52.800003" y1="63.36" x2="79.200005" y2="63.36" class="solid"></line>
    <line x1="73.920006" y1="52.800003" x2="68.64" y2="63.36" class="solid"></line>
    <line x1="84.48" y1="52.800003" x2="79.200005" y2="63.36" class="solid"></line>
  </g>
  <g>
    <line x1="68.64" y1="31.68" x2="95.04" y2="31.68" class="solid"></line>
    <line x1="89.76" y1="21.12" x2="84.48" y2="31.68" class="solid"></line>
    <line x1="100.32001" y1="21.12" x2="95.04" y2="31.68" class="solid"></line>
  </g>
  <g>
    <line x1="95.04" y1="42.24" x2="100.32001" y2="42.24" class="solid"></line>
    <line x1="105.600006" y1="31.68" x2="95.04" y2="52.800003" class="solid"></line>
    <line x1="89.76" y1="52.800003" x2="95.04" y2="52.800003" class="solid"></line>
  </g>
  <g>
    <line x1="132" y1="31.68" x2="158.40001" y2="31.68" class="solid"></line>
    <line x1="142.56001" y1="21.12" x2="137.28" y2="31.68" class="solid"></line>
    <line x1="153.12001" y1="21.12" x2="147.84001" y2="31.68" class="solid"></line>
    <line x1="163.68001" y1="21.12" x2="158.40001" y2="31.68" class="solid"></line>
  </g>
  <g>
    <line x1="116.16" y1="42.24" x2="121.44" y2="42.24" class="solid"></line>
    <line x1="126.72" y1="31.68" x2="116.16" y2="52.800003" class="solid"></line>
    <line x1="110.880005" y1="52.800003" x2="116.16" y2="52.800003" class="solid"></line>
  </g>
  <g>
    <line x1="116.16" y1="63.36" x2="142.56001" y2="63.36" class="solid"></line>
    <line x1="126.72" y1="52.800003" x2="121.44" y2="63.36" class="solid"></line>
    <line x1="137.28" y1="52.800003" x2="132" y2="63.36" class="solid"></line>
    <line x1="147.84001" y1="52.800003" x2="142.56001" y2="63.36" class="solid"></line>
  </g>
</svg>
