<svg xmlns="http://www.w3.org/2000/svg" width="79.200005" height="63.36" class="svgbob">
  <style>.filled{
	fill: none !important;
}

text{
    font-family: monospace !important;
    font-weight: bold !important;
    fill: red !important;
    visibility: visible;
}
marker > *{
    stroke: darkorange !important;
    visibility: visible;
}
body.check-text text,
body.check-text marker > *{
    visibility: hidden;
}.svgbob line, .svgbob path, .svgbob circle, .svgbob rect, .svgbob polygon {
  stroke: black;
  stroke-width: 2;
  stroke-opacity: 1;
  fill-opacity: 1;
  stroke-linecap: round;
  stroke-linejoin: miter;
}

.svgbob text {
  white-space: pre;
  fill: black;
  font-family: Iosevka Fixed, monospace;
  font-size: 14px;
}

.svgbob rect.backdrop {
  stroke: none;
  fill: white;
}

.svgbob .broken {
  stroke-dasharray: 8;
}

.svgbob .filled {
  fill: black;
}

.svgbob .bg_filled {
  fill: white;
  stroke-width: 1;
}

.svgbob .nofill {
  fill: white;
}

.svgbob .end_marked_arrow {
  marker-end: url(#arrow);
}

.svgbob .start_marked_arrow {
  marker-start: url(#arrow);
}

.svgbob .end_marked_diamond {
  marker-end: url(#diamond);
}

.svgbob .start_marked_diamond {
  marker-start: url(#diamond);
}

.svgbob .end_marked_circle {
  marker-end: url(#circle);
}

.svgbob .start_marked_circle {
  marker-start: url(#circle);
}

.svgbob .end_marked_open_circle {
  marker-end: url(#open_circle);
}

.svgbob .start_marked_open_circle {
  marker-start: url(#open_circle);
}

.svgbob .end_marked_big_open_circle {
  marker-end: url(#big_open_circle);
}

.svgbob .start_marked_big_open_circle {
  marker-start: url(#big_open_circle);
}

</style>
  <defs>
    <marker id="arrow" viewBox="-2 -2 8 8" refX="4" refY="2" markerWidth="7" markerHeight="7" orient="auto-start-reverse">
      <polygon points="0,0 0,4 4,2 0,0"></polygon>
    </marker>
    <marker id="diamond" viewBox="-2 -2 8 8" refX="4" refY="2" markerWidth="7" markerHeight="7" orient="auto-start-reverse">
      <polygon points="0,2 2,0 4,2 2,4 0,2"></polygon>
    </marker>
    <marker id="circle" viewBox="0 0 8 8" refX="4" refY="4" markerWidth="7" markerHeight="7" orient="auto-start-reverse">
      <circle cx="4" cy="4" r="2" class="filled"></circle>
    </marker>
    <marker id="open_circle" viewBox="0 0 8 8" refX="4" refY="4" markerWidth="7" markerHeight="7" orient="auto-start-reverse">
      <circle cx="4" cy="4" r="2" class="bg_filled"></circle>
    </marker>
    <marker id="big_open_circle" viewBox="0 0 8 8" refX="4" refY="4" markerWidth="7" markerHeight="7" orient="auto-start-reverse">
      <circle cx="4" cy="4" r="3" class="bg_filled"></circle>
    </marker>
  </defs>
  <rect class="backdrop" x="0" y="0" width="79.200005" height="63.36"></rect>
  <line x1="36.960003" y1="10.56" x2="31.68" y2="21.12" class="solid"></line>
  <text x="22.44" y="39.600002" >)</text>
  <line x1="21.12" y1="42.24" x2="15.84" y2="52.800003" class="solid"></line>
  <g>
    <line x1="10.56" y1="10.56" x2="23.76" y2="10.56" class="solid"></line>
    <line x1="10.56" y1="10.56" x2="5.28" y2="21.12" class="solid"></line>
    <line x1="23.76" y1="10.56" x2="23.76" y2="31.68" class="solid"></line>
    <path d="M 2.64,21.12 A 7.92,7.92 0,0,0 2.64,31.68" class="nofill"></path>
    <line x1="2.64" y1="31.68" x2="23.76" y2="31.68" class="solid"></line>
    <line x1="2.64" y1="31.68" x2="2.64" y2="52.800003" class="solid"></line>
  </g>
  <g>
    <path d="M 29.04,21.12 A 7.92,7.92 0,0,0 29.04,31.68" class="nofill"></path>
    <line x1="29.04" y1="31.68" x2="47.52" y2="31.68" class="solid"></line>
    <line x1="29.04" y1="31.68" x2="29.04" y2="52.800003" class="solid"></line>
    <path d="M 47.52,31.68 A 10.56,10.56 0,0,1 47.52,42.24" class="nofill"></path>
    <line x1="29.04" y1="52.800003" x2="42.24" y2="52.800003" class="solid"></line>
    <line x1="47.52" y1="42.24" x2="42.24" y2="52.800003" class="solid"></line>
  </g>
  <g>
    <line x1="55.440002" y1="31.68" x2="73.920006" y2="31.68" class="solid"></line>
    <line x1="55.440002" y1="31.68" x2="55.440002" y2="52.800003" class="solid"></line>
    <line x1="55.440002" y1="52.800003" x2="68.64" y2="52.800003" class="solid"></line>
  </g>
</svg>
